/home/work/dvalenzu/data/large/Wiki: 1,817.2 MiB / 23.8 GiB = 0.075, 6.6 MiB/s, 1:01:14
/home/work/dvalenzu/data/large/Wiki.decompressed.lzma: 1,817.2 MiB / 23.8 GiB = 0.075, 119 MiB/s, 3:24
Compression ratio : 0.074620958827
Final Wtime(s)    : 3674.42653108
Decompression t(s)    : 205.05270195
