1  13971134 0.0 1.0
10485760  17845581 0.05 1.28
20971520  17064724 0.1 1.22
41943040  15674057 0.2 1.12
62914560  15133855 0.3 1.08
83886080  14744551 0.4 1.06
104857600  14495228 0.5 1.04
125829120  14326051 0.6 1.03
146800640  14200072 0.7 1.02
167772160  14069215 0.8 1.01
188743680  14039340 0.9 1.0
209715200  13971133 1.0 1.0
