enwiki-20180801-pages-meta-history1.xml-p10p2087
enwiki-20180801-pages-meta-history1.xml-p2088p4179
enwiki-20180801-pages-meta-history1.xml-p4180p5716
enwiki-20180801-pages-meta-history1.xml-p5717p7629
enwiki-20180801-pages-meta-history1.xml-p7630p9336
enwiki-20180801-pages-meta-history1.xml-p9337p11229
enwiki-20180801-pages-meta-history1.xml-p11230p13048
enwiki-20180801-pages-meta-history1.xml-p13049p14698
enwiki-20180801-pages-meta-history1.xml-p14699p16247
enwiki-20180801-pages-meta-history1.xml-p16248p18093
enwiki-20180801-pages-meta-history1.xml-p18094p19689
enwiki-20180801-pages-meta-history1.xml-p19690p21383
enwiki-20180801-pages-meta-history1.xml-p21384p23048
enwiki-20180801-pages-meta-history1.xml-p23049p24956
enwiki-20180801-pages-meta-history1.xml-p24957p26749
enwiki-20180801-pages-meta-history1.xml-p26750p28383
enwiki-20180801-pages-meta-history1.xml-p28384p30226
enwiki-20180801-pages-meta-history1.xml-p30227p30303
enwiki-20180801-pages-meta-history2.xml-p30304p32042
enwiki-20180801-pages-meta-history2.xml-p32043p33960
enwiki-20180801-pages-meta-history2.xml-p33961p36864
enwiki-20180801-pages-meta-history2.xml-p36865p39049
enwiki-20180801-pages-meta-history2.xml-p39050p42113
enwiki-20180801-pages-meta-history2.xml-p42114p44660
enwiki-20180801-pages-meta-history2.xml-p44661p47500
enwiki-20180801-pages-meta-history2.xml-p47501p50483
enwiki-20180801-pages-meta-history2.xml-p50484p53180
enwiki-20180801-pages-meta-history2.xml-p53181p56162
enwiki-20180801-pages-meta-history2.xml-p56163p59534
enwiki-20180801-pages-meta-history2.xml-p59535p62982
enwiki-20180801-pages-meta-history2.xml-p62983p66512
enwiki-20180801-pages-meta-history2.xml-p66513p70505
enwiki-20180801-pages-meta-history2.xml-p70506p74984
enwiki-20180801-pages-meta-history2.xml-p74985p80103
