
--- computing reference lenght based on memory limit:
--- With 4000MB of  memory, the reference length will be: 419430399 symbols
RLZ parser intitialized with:
Ignore     : 0
Ref        : 419430399
Partitions : 3
Memory(MB) : 4000
RLZ parsing...
Building SA...
We will read blocks of size: 734003201
Reading block 0/12
Block read in 4.87672 (s)
Computing SA(ref)...
Computing LZ77(ref)...
Starting RLZ...
Reading block 1/12
Block read in 7.37149 (s)
Waiting for all tasks to be done...
Done.
Reading block 2/12
Block read in 7.43897 (s)

*
Starting parallel parsing in block...Parallel parse in 186.562 (s)
Writing phrases... 
Phrases written  in 0.331484 (s)
Waiting for all tasks to be done...
Done.
Reading block 3/12
Block read in 7.41037 (s)

*
Starting parallel parsing in block...Parallel parse in 217.326 (s)
Writing phrases... 
Phrases written  in 0.378706 (s)
Waiting for all tasks to be done...
Done.
Reading block 4/12
Block read in 7.32422 (s)

*
Starting parallel parsing in block...Parallel parse in 184.579 (s)
Writing phrases... 
Phrases written  in 0.339627 (s)
Waiting for all tasks to be done...
Done.
Reading block 5/12
Block read in 7.63472 (s)

*
Starting parallel parsing in block...Parallel parse in 203.131 (s)
Writing phrases... 
Phrases written  in 0.354848 (s)
Waiting for all tasks to be done...
Done.
Reading block 6/12
Block read in 7.77716 (s)

*
Starting parallel parsing in block...Parallel parse in 181.684 (s)
Writing phrases... 
Phrases written  in 0.317568 (s)
Waiting for all tasks to be done...
Done.
Reading block 7/12
Block read in 7.43053 (s)

*
Starting parallel parsing in block...Parallel parse in 176.326 (s)
Writing phrases... 
Phrases written  in 0.315227 (s)
Waiting for all tasks to be done...
Done.
Reading block 8/12
Block read in 7.40012 (s)

*
Starting parallel parsing in block...Parallel parse in 182.695 (s)
Writing phrases... 
Phrases written  in 0.324004 (s)
Waiting for all tasks to be done...
Done.
Reading block 9/12
Block read in 7.42952 (s)

*
Starting parallel parsing in block...Parallel parse in 232.033 (s)
Writing phrases... 
Phrases written  in 0.398292 (s)
Waiting for all tasks to be done...
Done.
Reading block 10/12
Block read in 7.41615 (s)

*
Starting parallel parsing in block...Parallel parse in 190.855 (s)
Writing phrases... 
Phrases written  in 0.336326 (s)
Waiting for all tasks to be done...
Done.
Reading block 11/12
Block read in 7.45506 (s)

*
Starting parallel parsing in block...Parallel parse in 178.333 (s)
Writing phrases... 
Phrases written  in 0.32399 (s)
Waiting for all tasks to be done...
Done.
Reading block 12/12
Block read in 0.912789 (s)

*
Starting parallel parsing in block...Parallel parse in 180.521 (s)
Writing phrases... 
Phrases written  in 0.333471 (s)
Waiting for all tasks to be done...
Done.

*
Starting parallel parsing in block...Parallel parse in 17.4802 (s)
Writing phrases... 
Phrases written  in 0.027604 (s)
Input succesfully compressed, output written in: RESULTS_SCALABILITY/WIKIPEDIA//8589934592/RLZPP_MEM4000_THREADS_1_D_0_files/compressed_file
Parsing performed in 1 passes

0-th level report: 

Factors skipped      : 0
Factors 77'ed in ref : 7088095
Factors RLZ          : 188825538
Factors Total        : 195913633
--------------------------------------------
Time SA          : 41.0688
Time LZ77 of ref : 10.6958
Time RLZ parse   : 2218.41
-------------------------------
Time RLZ total   : 2270.18


Final Wtime(s)    : 2270.28
N Phrases         : 195913633
Compression ratio : 0.122689
seconds per MiB   : 0.277134
seconds per GiB   : 283.785
MiB per second    : 3.60837
GiB per second    : 0.0035238
Input filename = /home/work/dvalenzu/Repos/RLZPP_experiments/RESULTS_SCALABILITY/WIKIPEDIA/8589934592/RLZPP_MEM4000_THREADS_1_D_0_files/compressed_file
Output filename = /home/work/dvalenzu/Repos/RLZPP_experiments/RESULTS_SCALABILITY/WIKIPEDIA/8589934592/RLZPP_MEM4000_THREADS_1_D_0_files/compressed_file.decompressed
Input size = 1053890868 (1005.1MiB)
Max disk use = 1152921504606846976 (1099511627776.0MiB)
RAM use = 3758096384 (3584.0MiB)
RAM use (excl. buffer) = 3724541952 (3552.0MiB)
Max segment size = 3724541952 (3552.0MiB)

Process part 1:
  Total parsing data decoded so far: 0.00%
  Total text decoded so far: 0 (0.00MiB)
  Permute phrases by source:   Permute phrases by source: time = 0.14s, I/O = 79.37MiB/s  Permute phrases by source: time = 0.19s, I/O = 113.38MiB/s  Permute phrases by source: time = 0.23s, I/O = 144.98MiB/s  Permute phrases by source: time = 0.30s, I/O = 149.02MiB/s  Permute phrases by source: time = 0.35s, I/O = 156.09MiB/s  Permute phrases by source: time = 0.39s, I/O = 171.31MiB/s  Permute phrases by source: time = 0.46s, I/O = 171.40MiB/s  Permute phrases by source: time = 0.52s, I/O = 173.45MiB/s  Permute phrases by source: time = 0.56s, I/O = 182.70MiB/s  Permute phrases by source: time = 0.63s, I/O = 181.78MiB/s  Permute phrases by source: time = 0.73s, I/O = 172.81MiB/s  Permute phrases by source: time = 0.78s, I/O = 178.24MiB/s  Permute phrases by source: time = 0.83s, I/O = 180.12MiB/s  Permute phrases by source: time = 0.89s, I/O = 180.77MiB/s  Permute phrases by source: time = 0.93s, I/O = 186.07MiB/s  Permute phrases by source: time = 1.00s, I/O = 185.24MiB/s  Permute phrases by source: time = 1.06s, I/O = 185.29MiB/s  Permute phrases by source: time = 1.10s, I/O = 189.70MiB/s  Permute phrases by source: time = 1.17s, I/O = 188.69MiB/s  Permute phrases by source: time = 1.23s, I/O = 188.74MiB/s  Permute phrases by source: time = 1.27s, I/O = 192.38MiB/s  Permute phrases by source: time = 1.34s, I/O = 191.40MiB/s  Permute phrases by source: time = 1.40s, I/O = 191.40MiB/s  Permute phrases by source: time = 1.44s, I/O = 194.56MiB/s  Permute phrases by source: time = 1.50s, I/O = 193.98MiB/s  Permute phrases by source: time = 1.56s, I/O = 193.92MiB/s  Permute phrases by source: time = 1.60s, I/O = 196.71MiB/s  Permute phrases by source: time = 1.67s, I/O = 195.98MiB/s  Permute phrases by source: time = 1.73s, I/O = 195.94MiB/s  Permute phrases by source: time = 1.79s, I/O = 195.30MiB/s  Permute phrases by source: time = 1.83s, I/O = 197.71MiB/s  Permute phrases by source: time = 1.89s, I/O = 197.59MiB/s  Permute phrases by source: time = 1.96s, I/O = 196.98MiB/s  Permute phrases by source: time = 1.99s, I/O = 199.16MiB/s  Permute phrases by source: time = 2.05s, I/O = 199.04MiB/s  Permute phrases by source: time = 2.13s, I/O = 197.69MiB/s  Permute phrases by source: time = 2.18s, I/O = 198.06MiB/s  Permute phrases by source: time = 2.22s, I/O = 200.00MiB/s  Permute phrases by source: time = 2.30s, I/O = 198.63MiB/s  Permute phrases by source: time = 2.35s, I/O = 199.46MiB/s  Permute phrases by source: time = 2.38s, I/O = 201.24MiB/s  Permute phrases by source: time = 2.47s, I/O = 198.79MiB/s  Permute phrases by source: time = 2.52s, I/O = 199.30MiB/s  Permute phrases by source: time = 2.56s, I/O = 200.96MiB/s  Permute phrases by source: time = 2.63s, I/O = 200.09MiB/s  Permute phrases by source: time = 2.67s, I/O = 201.67MiB/s  Permute phrases by source: time = 2.74s, I/O = 201.08MiB/s  Permute phrases by source: time = 2.81s, I/O = 200.12MiB/s  Permute phrases by source: time = 2.85s, I/O = 201.53MiB/s  Permute phrases by source: time = 2.91s, I/O = 201.14MiB/s  Permute phrases by source: time = 2.99s, I/O = 200.16MiB/s  Permute phrases by source: time = 3.03s, I/O = 201.48MiB/s  Permute phrases by source: time = 3.09s, I/O = 201.05MiB/s  Permute phrases by source: time = 3.16s, I/O = 200.22MiB/s  Permute phrases by source: time = 3.20s, I/O = 201.48MiB/s  Permute phrases by source: time = 3.27s, I/O = 201.08MiB/s  Permute phrases by source: time = 3.34s, I/O = 200.33MiB/s  Permute phrases by source: time = 3.37s, I/O = 201.58MiB/s  Permute phrases by source: time = 3.44s, I/O = 201.11MiB/s  Permute phrases by source: time = 3.51s, I/O = 200.26MiB/s  Permute phrases by source: time = 3.55s, I/O = 201.39MiB/s  Permute phrases by source: time = 3.62s, I/O = 200.96MiB/s  Permute phrases by source: time = 3.69s, I/O = 200.45MiB/s  Permute phrases by source: time = 3.72s, I/O = 201.57MiB/s  Permute phrases by source: time = 3.79s, I/O = 201.40MiB/s  Permute phrases by source: time = 3.85s, I/O = 200.91MiB/s  Permute phrases by source: time = 3.89s, I/O = 201.99MiB/s  Permute phrases by source: time = 3.96s, I/O = 201.71MiB/s  Permute phrases by source: time = 4.02s, I/O = 201.26MiB/s  Permute phrases by source: time = 4.06s, I/O = 202.29MiB/s  Permute phrases by source: time = 4.12s, I/O = 202.09MiB/s  Permute phrases by source: time = 4.19s, I/O = 201.57MiB/s  Permute phrases by source: time = 4.23s, I/O = 202.56MiB/s  Permute phrases by source: time = 4.29s, I/O = 202.36MiB/s  Permute phrases by source: time = 4.36s, I/O = 201.92MiB/s  Permute phrases by source: time = 4.42s, I/O = 201.70MiB/s  Permute phrases by source: time = 4.46s, I/O = 202.63MiB/s  Permute phrases by source: time = 4.53s, I/O = 202.19MiB/s  Permute phrases by source: time = 4.59s, I/O = 202.02MiB/s  Permute phrases by source: time = 4.63s, I/O = 202.92MiB/s  Permute phrases by source: time = 4.70s, I/O = 202.49MiB/s  Permute phrases by source: time = 4.76s, I/O = 202.20MiB/s  Permute phrases by source: time = 4.80s, I/O = 203.05MiB/s  Permute phrases by source: time = 4.87s, I/O = 202.65MiB/s  Permute phrases by source: time = 4.93s, I/O = 202.49MiB/s  Permute phrases by source: time = 4.97s, I/O = 203.31MiB/s  Permute phrases by source: time = 5.11s, I/O = 199.78MiB/s  Permute phrases by source: time = 5.16s, I/O = 200.42MiB/s  Permute phrases by source: time = 5.19s, I/O = 201.23MiB/s  Permute phrases by source: time = 5.26s, I/O = 200.88MiB/s  Permute phrases by source: time = 5.32s, I/O = 200.70MiB/s  Permute phrases by source: time = 5.36s, I/O = 201.47MiB/s  Permute phrases by source: time = 5.43s, I/O = 201.13MiB/s  Permute phrases by source: time = 5.49s, I/O = 201.01MiB/s  Permute phrases by source: time = 5.53s, I/O = 201.76MiB/s  Permute phrases by source: time = 5.60s, I/O = 201.41MiB/s  Permute phrases by source: time = 5.66s, I/O = 201.25MiB/s  Permute phrases by source: time = 5.70s, I/O = 201.98MiB/s  Permute phrases by source: time = 5.77s, I/O = 201.65MiB/s  Permute phrases by source: time = 5.83s, I/O = 201.52MiB/s  Permute phrases by source: time = 5.87s, I/O = 202.23MiB/s  Permute phrases by source: time = 5.94s, I/O = 201.87MiB/s  Permute phrases by source: time = 6.00s, I/O = 201.77MiB/s  Permute phrases by source: time = 6.03s, I/O = 202.46MiB/s  Permute phrases by source: time = 6.10s, I/O = 202.24MiB/s  Permute phrases by source: time = 6.16s, I/O = 202.13MiB/s  Permute phrases by source: time = 6.20s, I/O = 202.80MiB/s  Permute phrases by source: time = 6.26s, I/O = 202.58MiB/s  Permute phrases by source: time = 6.32s, I/O = 202.47MiB/s  Permute phrases by source: time = 6.36s, I/O = 203.12MiB/s  Permute phrases by source: time = 6.43s, I/O = 202.87MiB/s  Permute phrases by source: time = 6.49s, I/O = 202.80MiB/s  Permute phrases by source: time = 6.53s, I/O = 203.43MiB/s  Permute phrases by source: time = 6.59s, I/O = 203.19MiB/s  Permute phrases by source: time = 6.65s, I/O = 203.11MiB/s  Permute phrases by source: time = 6.69s, I/O = 203.73MiB/s  Permute phrases by source: time = 6.76s, I/O = 203.49MiB/s  Permute phrases by source: time = 6.82s, I/O = 203.42MiB/s  Permute phrases by source: time = 6.85s, I/O = 204.02MiB/s  Permute phrases by source: time = 6.92s, I/O = 203.77MiB/s  Permute phrases by source: time = 6.98s, I/O = 203.69MiB/s  Permute phrases by source: time = 7.02s, I/O = 204.28MiB/s  Permute phrases by source: time = 7.09s, I/O = 203.88MiB/s  Permute phrases by source: time = 7.16s, I/O = 203.67MiB/s  Permute phrases by source: time = 7.23s, I/O = 203.26MiB/s  Permute phrases by source: time = 7.27s, I/O = 203.78MiB/s  Permute phrases by source: time = 7.33s, I/O = 203.59MiB/s  Permute phrases by source: time = 7.40s, I/O = 203.21MiB/s  Permute phrases by source: time = 7.44s, I/O = 203.72MiB/s  Permute phrases by source: time = 7.51s, I/O = 203.52MiB/s  Permute phrases by source: time = 7.58s, I/O = 203.14MiB/s  Permute phrases by source: time = 7.62s, I/O = 203.64MiB/s  Permute phrases by source: time = 7.68s, I/O = 203.45MiB/s  Permute phrases by source: time = 7.75s, I/O = 203.10MiB/s  Permute phrases by source: time = 7.79s, I/O = 203.58MiB/s  Permute phrases by source: time = 7.86s, I/O = 203.39MiB/s  Permute phrases by source: time = 7.93s, I/O = 203.05MiB/s  Permute phrases by source: time = 7.97s, I/O = 203.51MiB/s  Permute phrases by source: time = 8.03s, I/O = 203.36MiB/s  Permute phrases by source: time = 8.11s, I/O = 202.98MiB/s  Permute phrases by source: time = 8.15s, I/O = 203.45MiB/s  Permute phrases by source: time = 8.21s, I/O = 203.25MiB/s  Permute phrases by source: time = 8.28s, I/O = 203.01MiB/s  Permute phrases by source: time = 8.32s, I/O = 203.50MiB/s  Permute phrases by source: time = 8.38s, I/O = 203.40MiB/s  Permute phrases by source: time = 8.45s, I/O = 203.16MiB/s  Permute phrases by source: time = 8.49s, I/O = 203.65MiB/s  Permute phrases by source: time = 8.55s, I/O = 203.51MiB/s  Permute phrases by source: time = 8.62s, I/O = 203.28MiB/s  Permute phrases by source: time = 8.65s, I/O = 203.75MiB/s  Permute phrases by source: time = 8.72s, I/O = 203.65MiB/s  Permute phrases by source: time = 8.78s, I/O = 203.42MiB/s  Permute phrases by source: time = 8.82s, I/O = 203.88MiB/s  Permute phrases by source: time = 8.88s, I/O = 203.75MiB/s  Permute phrases by source: time = 8.95s, I/O = 203.53MiB/s  Permute phrases by source: time = 8.99s, I/O = 203.98MiB/s  Permute phrases by source: time = 9.05s, I/O = 203.86MiB/s  Permute phrases by source: time = 9.12s, I/O = 203.63MiB/s  Permute phrases by source: time = 9.16s, I/O = 204.08MiB/s  Permute phrases by source: time = 9.22s, I/O = 203.98MiB/s  Permute phrases by source: time = 9.29s, I/O = 203.72MiB/s  Permute phrases by source: time = 9.33s, I/O = 204.16MiB/s  Permute phrases by source: time = 9.39s, I/O = 204.04MiB/s  Permute phrases by source: time = 9.46s, I/O = 203.82MiB/s  Permute phrases by source: time = 9.50s, I/O = 204.25MiB/s  Permute phrases by source: time = 9.56s, I/O = 204.15MiB/s  Permute phrases by source: time = 9.63s, I/O = 203.94MiB/s  Permute phrases by source: time = 9.66s, I/O = 204.37MiB/s  Permute phrases by source: time = 9.73s, I/O = 204.25MiB/s  Permute phrases by source: time = 9.80s, I/O = 204.03MiB/s  Permute phrases by source: time = 9.83s, I/O = 204.45MiB/s  Permute phrases by source: time = 9.90s, I/O = 204.35MiB/s  Permute phrases by source: time = 9.96s, I/O = 204.14MiB/s  Permute phrases by source: time = 10.00s, I/O = 204.54MiB/s  Permute phrases by source: time = 10.06s, I/O = 204.44MiB/s  Permute phrases by source: time = 10.13s, I/O = 204.23MiB/s  Permute phrases by source: time = 10.20s, I/O = 204.12MiB/s  Permute phrases by source: time = 10.23s, I/O = 204.52MiB/s  Permute phrases by source: time = 10.30s, I/O = 204.31MiB/s  Permute phrases by source: time = 10.36s, I/O = 204.22MiB/s  Permute phrases by source: time = 10.40s, I/O = 204.61MiB/s  Permute phrases by source: time = 10.47s, I/O = 204.40MiB/s  Permute phrases by source: time = 10.53s, I/O = 204.35MiB/s  Permute phrases by source: time = 10.57s, I/O = 204.74MiB/s  Permute phrases by source: time = 10.63s, I/O = 204.57MiB/s  Permute phrases by source: time = 10.67s, I/O = 204.95MiB/s  Permute phrases by source: 100.0%, time = 10.70s, I/O = 205.27MiB/s
  Processing this part will decode 8192.0MiB of text (100.00% of parsing)
  Last part = TRUE
  Decode segment 1/3 [0..3724541952):
    Selfdecode segment:     Selfdecode segment: time = 0.07s, I/O = 85.62MiB/s    Selfdecode segment: time = 0.15s, I/O = 78.10MiB/s    Selfdecode segment: time = 0.24s, I/O = 74.07MiB/s    Selfdecode segment: time = 0.34s, I/O = 71.04MiB/s    Selfdecode segment: time = 0.44s, I/O = 69.32MiB/s    Selfdecode segment: time = 0.54s, I/O = 68.09MiB/s    Selfdecode segment: time = 0.64s, I/O = 67.24MiB/s    Selfdecode segment: time = 0.73s, I/O = 67.46MiB/s    Selfdecode segment: time = 0.82s, I/O = 67.96MiB/s    Selfdecode segment: time = 0.91s, I/O = 68.11MiB/s    Selfdecode segment: time = 1.00s, I/O = 68.37MiB/s    Selfdecode segment: time = 1.08s, I/O = 69.29MiB/s    Selfdecode segment: time = 1.17s, I/O = 69.83MiB/s    Selfdecode segment: time = 1.25s, I/O = 70.13MiB/s    Selfdecode segment: time = 1.34s, I/O = 70.39MiB/s    Selfdecode segment: time = 1.42s, I/O = 70.66MiB/s    Selfdecode segment: time = 1.52s, I/O = 70.57MiB/s    Selfdecode segment: time = 1.60s, I/O = 70.75MiB/s    Selfdecode segment: time = 1.69s, I/O = 70.96MiB/s    Selfdecode segment: time = 1.77s, I/O = 71.22MiB/s    Selfdecode segment: time = 1.85s, I/O = 71.55MiB/s    Selfdecode segment: time = 1.94s, I/O = 71.70MiB/s    Selfdecode segment: time = 2.02s, I/O = 71.84MiB/s    Selfdecode segment: time = 2.11s, I/O = 71.94MiB/s    Selfdecode segment: time = 2.20s, I/O = 71.79MiB/s    Selfdecode segment: time = 2.29s, I/O = 71.88MiB/s    Selfdecode segment: time = 2.38s, I/O = 71.96MiB/s    Selfdecode segment: time = 2.46s, I/O = 72.07MiB/s    Selfdecode segment: time = 2.55s, I/O = 72.16MiB/s    Selfdecode segment: time = 2.63s, I/O = 72.24MiB/s    Selfdecode segment: time = 2.72s, I/O = 72.13MiB/s    Selfdecode segment: time = 2.81s, I/O = 72.09MiB/s    Selfdecode segment: time = 2.90s, I/O = 72.09MiB/s    Selfdecode segment: time = 2.98s, I/O = 72.25MiB/s    Selfdecode segment: time = 3.07s, I/O = 72.30MiB/s    Selfdecode segment: time = 3.15s, I/O = 72.57MiB/s    Selfdecode segment: time = 3.22s, I/O = 72.80MiB/s    Selfdecode segment: time = 3.30s, I/O = 73.14MiB/s    Selfdecode segment: time = 3.38s, I/O = 73.18MiB/s    Selfdecode segment: time = 3.47s, I/O = 73.23MiB/s    Selfdecode segment: time = 3.56s, I/O = 73.22MiB/s    Selfdecode segment: time = 3.64s, I/O = 73.16MiB/s    Selfdecode segment: time = 3.73s, I/O = 73.19MiB/s    Selfdecode segment: time = 3.82s, I/O = 73.24MiB/s    Selfdecode segment: time = 3.90s, I/O = 73.31MiB/s    Selfdecode segment: time = 3.98s, I/O = 73.41MiB/s    Selfdecode segment: time = 4.07s, I/O = 73.34MiB/s    Selfdecode segment: time = 4.16s, I/O = 73.29MiB/s    Selfdecode segment: time = 4.20s, I/O = 74.24MiB/s    Selfdecode segment: time = 4.25s, I/O = 74.84MiB/s    Selfdecode segment: time = 4.34s, I/O = 74.82MiB/s    Selfdecode segment: time = 4.42s, I/O = 74.78MiB/s    Selfdecode segment: time = 4.51s, I/O = 74.78MiB/s    Selfdecode segment: time = 4.59s, I/O = 74.82MiB/s    Selfdecode segment: time = 4.67s, I/O = 74.91MiB/s    Selfdecode segment: time = 4.76s, I/O = 74.80MiB/s    Selfdecode segment: time = 4.84s, I/O = 74.87MiB/s    Selfdecode segment: time = 4.93s, I/O = 74.87MiB/s    Selfdecode segment: time = 5.01s, I/O = 74.89MiB/s    Selfdecode segment: time = 5.10s, I/O = 74.88MiB/s    Selfdecode segment: time = 5.19s, I/O = 74.84MiB/s    Selfdecode segment: time = 5.28s, I/O = 74.78MiB/s    Selfdecode segment: time = 5.37s, I/O = 74.74MiB/s    Selfdecode segment: time = 5.46s, I/O = 74.66MiB/s    Selfdecode segment: time = 5.56s, I/O = 74.49MiB/s    Selfdecode segment: time = 5.65s, I/O = 74.32MiB/s    Selfdecode segment: time = 5.73s, I/O = 74.43MiB/s    Selfdecode segment: time = 5.81s, I/O = 74.53MiB/s    Selfdecode segment: time = 5.90s, I/O = 74.44MiB/s    Selfdecode segment: time = 5.99s, I/O = 74.43MiB/s    Selfdecode segment: time = 6.08s, I/O = 74.40MiB/s    Selfdecode segment: time = 6.17s, I/O = 74.36MiB/s    Selfdecode segment: time = 6.25s, I/O = 74.43MiB/s    Selfdecode segment: time = 6.33s, I/O = 74.41MiB/s    Selfdecode segment: time = 6.43s, I/O = 74.23MiB/s    Selfdecode segment: time = 6.52s, I/O = 74.21MiB/s    Selfdecode segment: time = 6.61s, I/O = 74.16MiB/s    Selfdecode segment: time = 6.70s, I/O = 74.13MiB/s    Selfdecode segment: time = 6.79s, I/O = 74.10MiB/s    Selfdecode segment: time = 6.88s, I/O = 74.03MiB/s    Selfdecode segment: time = 6.95s, I/O = 73.99MiB/s
    Distribute chunks:     Distribute chunks: time = 0.02s, I/O = 422.07MiB/s    Distribute chunks: time = 0.05s, I/O = 462.73MiB/s    Distribute chunks: time = 0.09s, I/O = 485.72MiB/s    Distribute chunks: time = 0.14s, I/O = 509.54MiB/s    Distribute chunks: time = 0.20s, I/O = 520.10MiB/s    Distribute chunks: time = 0.26s, I/O = 511.77MiB/s    Distribute chunks: time = 0.33s, I/O = 495.53MiB/s    Distribute chunks: time = 0.42s, I/O = 529.06MiB/s    Distribute chunks: time = 0.52s, I/O = 553.66MiB/s    Distribute chunks: time = 0.61s, I/O = 556.44MiB/s    Distribute chunks: time = 0.70s, I/O = 547.57MiB/s    Distribute chunks: time = 0.80s, I/O = 554.09MiB/s    Distribute chunks: time = 0.90s, I/O = 568.07MiB/s    Distribute chunks: time = 0.99s, I/O = 568.97MiB/s    Distribute chunks: time = 1.08s, I/O = 572.47MiB/s    Distribute chunks: time = 1.18s, I/O = 569.96MiB/s    Distribute chunks: time = 1.28s, I/O = 591.31MiB/s    Distribute chunks: time = 1.47s, I/O = 553.29MiB/s    Distribute chunks: time = 1.77s, I/O = 490.99MiB/s    Distribute chunks: time = 2.05s, I/O = 453.46MiB/s    Distribute chunks: time = 3.75s, I/O = 259.63MiB/s    Distribute chunks: time = 3.95s, I/O = 258.39MiB/s    Distribute chunks: time = 4.25s, I/O = 259.80MiB/s    Distribute chunks: time = 4.52s, I/O = 257.57MiB/s    Distribute chunks: time = 4.71s, I/O = 256.91MiB/s    Distribute chunks: time = 4.92s, I/O = 255.84MiB/s    Distribute chunks: time = 5.11s, I/O = 255.01MiB/s    Distribute chunks: time = 5.32s, I/O = 254.04MiB/s    Distribute chunks: time = 5.98s, I/O = 241.16MiB/s    Distribute chunks: time = 6.67s, I/O = 228.94MiB/s    Distribute chunks: time = 7.10s, I/O = 222.63MiB/s    Distribute chunks: time = 7.84s, I/O = 207.14MiB/s    Distribute chunks: time = 7.93s, I/O = 210.21MiB/s    Distribute chunks: time = 8.11s, I/O = 211.96MiB/s    Distribute chunks: time = 8.69s, I/O = 206.49MiB/s    Distribute chunks: time = 9.15s, I/O = 202.59MiB/s    Distribute chunks: time = 9.66s, I/O = 197.23MiB/s    Distribute chunks: time = 10.19s, I/O = 191.88MiB/s    Distribute chunks: time = 10.96s, I/O = 186.40MiB/s    Distribute chunks: time = 11.29s, I/O = 185.10MiB/s    Distribute chunks: time = 11.74s, I/O = 183.45MiB/s    Distribute chunks: time = 12.10s, I/O = 182.28MiB/s    Distribute chunks: time = 12.36s, I/O = 181.50MiB/s    Distribute chunks: time = 12.59s, I/O = 181.11MiB/s    Distribute chunks: time = 12.83s, I/O = 180.57MiB/s    Distribute chunks: time = 13.07s, I/O = 180.05MiB/s    Distribute chunks: time = 13.36s, I/O = 179.41MiB/s    Distribute chunks: time = 13.77s, I/O = 178.22MiB/s    Distribute chunks: time = 14.10s, I/O = 177.10MiB/s    Distribute chunks: time = 14.62s, I/O = 174.14MiB/s    Distribute chunks: time = 15.18s, I/O = 171.14MiB/s    Distribute chunks: time = 15.80s, I/O = 168.10MiB/s    Distribute chunks: time = 16.34s, I/O = 165.47MiB/s    Distribute chunks: time = 16.78s, I/O = 163.82MiB/s    Distribute chunks: time = 17.20s, I/O = 162.39MiB/s    Distribute chunks: time = 17.76s, I/O = 160.34MiB/s    Distribute chunks: time = 18.33s, I/O = 158.43MiB/s    Distribute chunks: time = 18.81s, I/O = 157.06MiB/s    Distribute chunks: time = 19.29s, I/O = 155.64MiB/s    Distribute chunks: time = 19.81s, I/O = 154.07MiB/s    Distribute chunks: time = 20.43s, I/O = 152.27MiB/s    Distribute chunks: time = 21.05s, I/O = 150.79MiB/s    Distribute chunks: time = 21.63s, I/O = 149.43MiB/s    Distribute chunks: time = 22.32s, I/O = 147.87MiB/s    Distribute chunks: time = 22.97s, I/O = 146.53MiB/s    Distribute chunks: time = 23.57s, I/O = 145.44MiB/s    Distribute chunks: time = 24.07s, I/O = 144.44MiB/s    Distribute chunks: time = 24.57s, I/O = 143.48MiB/s    Distribute chunks: time = 25.01s, I/O = 142.77MiB/s    Distribute chunks: time = 25.48s, I/O = 142.11MiB/s    Distribute chunks: time = 25.92s, I/O = 141.48MiB/s    Distribute chunks: time = 26.65s, I/O = 140.21MiB/s    Distribute chunks: time = 27.52s, I/O = 138.21MiB/s    Distribute chunks: time = 27.81s, I/O = 138.72MiB/s    Distribute chunks: time = 28.42s, I/O = 137.76MiB/s    Distribute chunks: time = 28.98s, I/O = 137.12MiB/s    Distribute chunks: time = 29.57s, I/O = 136.43MiB/s    Distribute chunks: time = 30.14s, I/O = 135.80MiB/s    Distribute chunks: time = 30.75s, I/O = 135.13MiB/s    Distribute chunks: time = 31.21s, I/O = 134.79MiB/s    Distribute chunks: time = 31.89s, I/O = 133.91MiB/s    Distribute chunks: time = 32.63s, I/O = 132.74MiB/s    Distribute chunks: time = 32.97s, I/O = 132.90MiB/s    Distribute chunks: time = 33.52s, I/O = 132.39MiB/s    Distribute chunks: time = 34.03s, I/O = 131.94MiB/s    Distribute chunks: time = 34.57s, I/O = 131.55MiB/s    Distribute chunks: time = 35.20s, I/O = 130.84MiB/s    Distribute chunks: time = 35.92s, I/O = 129.70MiB/s    Distribute chunks: time = 36.66s, I/O = 128.81MiB/s    Distribute chunks: time = 37.21s, I/O = 128.42MiB/s    Distribute chunks: time = 37.97s, I/O = 127.42MiB/s    Distribute chunks: time = 38.68s, I/O = 126.54MiB/s    Distribute chunks: time = 39.17s, I/O = 126.19MiB/s    Distribute chunks: time = 39.77s, I/O = 125.73MiB/s    Distribute chunks: time = 40.49s, I/O = 124.92MiB/s    Distribute chunks: time = 41.13s, I/O = 124.45MiB/s    Distribute chunks: time = 41.77s, I/O = 124.00MiB/s    Distribute chunks: time = 42.39s, I/O = 123.42MiB/s    Distribute chunks: time = 42.88s, I/O = 123.14MiB/s    Distribute chunks: time = 43.84s, I/O = 122.18MiB/s    Distribute chunks: time = 44.45s, I/O = 121.93MiB/s    Distribute chunks: time = 45.22s, I/O = 121.20MiB/s    Distribute chunks: time = 45.74s, I/O = 120.79MiB/s    Distribute chunks: time = 46.17s, I/O = 120.67MiB/s    Distribute chunks: time = 46.84s, I/O = 120.29MiB/s    Distribute chunks: time = 47.55s, I/O = 120.00MiB/s    Distribute chunks: time = 47.58s, I/O = 119.98MiB/s
    Write segment to disk: 39.03s, I/O = 91.00MiB/s
    Decode the nearby phrases for next segment: 7.45s
  Decode segment 2/3 [3724541952..7449083904):
    Load segment chunks:     Load segment chunks: 0.2%, time = 0.08s, I/O = 71.58MiB/s    Load segment chunks: 0.3%, time = 0.13s, I/O = 78.06MiB/s    Load segment chunks: 0.4%, time = 0.17s, I/O = 82.67MiB/s    Load segment chunks: 0.5%, time = 0.21s, I/O = 85.42MiB/s    Load segment chunks: 0.6%, time = 0.25s, I/O = 86.67MiB/s    Load segment chunks: 0.7%, time = 0.31s, I/O = 91.05MiB/s    Load segment chunks: 0.8%, time = 0.35s, I/O = 91.11MiB/s    Load segment chunks: 0.9%, time = 0.40s, I/O = 90.48MiB/s    Load segment chunks: 1.1%, time = 0.44s, I/O = 90.44MiB/s    Load segment chunks: 1.2%, time = 0.50s, I/O = 91.63MiB/s    Load segment chunks: 1.3%, time = 0.55s, I/O = 90.61MiB/s    Load segment chunks: 1.4%, time = 0.60s, I/O = 90.55MiB/s    Load segment chunks: 1.5%, time = 0.76s, I/O = 76.45MiB/s    Load segment chunks: 1.6%, time = 0.80s, I/O = 77.16MiB/s    Load segment chunks: 1.8%, time = 0.86s, I/O = 78.76MiB/s    Load segment chunks: 1.9%, time = 0.91s, I/O = 79.19MiB/s    Load segment chunks: 2.0%, time = 0.95s, I/O = 79.61MiB/s    Load segment chunks: 2.1%, time = 1.00s, I/O = 80.06MiB/s    Load segment chunks: 2.3%, time = 1.06s, I/O = 81.15MiB/s    Load segment chunks: 2.4%, time = 1.12s, I/O = 80.56MiB/s    Load segment chunks: 2.5%, time = 1.18s, I/O = 81.68MiB/s    Load segment chunks: 2.6%, time = 1.22s, I/O = 81.99MiB/s    Load segment chunks: 2.7%, time = 1.26s, I/O = 82.32MiB/s    Load segment chunks: 2.9%, time = 1.32s, I/O = 83.20MiB/s    Load segment chunks: 3.0%, time = 1.37s, I/O = 83.36MiB/s    Load segment chunks: 3.2%, time = 1.43s, I/O = 84.16MiB/s    Load segment chunks: 3.3%, time = 1.47s, I/O = 84.32MiB/s    Load segment chunks: 3.4%, time = 1.52s, I/O = 84.42MiB/s    Load segment chunks: 3.5%, time = 1.57s, I/O = 85.30MiB/s    Load segment chunks: 3.6%, time = 1.62s, I/O = 85.29MiB/s    Load segment chunks: 3.7%, time = 1.66s, I/O = 85.41MiB/s    Load segment chunks: 3.8%, time = 1.82s, I/O = 80.19MiB/s    Load segment chunks: 3.9%, time = 1.86s, I/O = 80.44MiB/s    Load segment chunks: 4.1%, time = 1.92s, I/O = 81.21MiB/s    Load segment chunks: 4.2%, time = 1.97s, I/O = 81.41MiB/s    Load segment chunks: 4.3%, time = 2.01s, I/O = 81.69MiB/s    Load segment chunks: 4.4%, time = 2.05s, I/O = 81.90MiB/s    Load segment chunks: 4.6%, time = 2.11s, I/O = 82.51MiB/s    Load segment chunks: 4.7%, time = 2.16s, I/O = 82.34MiB/s    Load segment chunks: 4.8%, time = 2.21s, I/O = 82.51MiB/s    Load segment chunks: 4.9%, time = 2.28s, I/O = 81.53MiB/s    Load segment chunks: 5.0%, time = 2.40s, I/O = 79.20MiB/s    Load segment chunks: 5.1%, time = 2.44s, I/O = 79.52MiB/s    Load segment chunks: 5.3%, time = 2.50s, I/O = 80.13MiB/s    Load segment chunks: 5.4%, time = 2.54s, I/O = 80.38MiB/s    Load segment chunks: 5.5%, time = 2.58s, I/O = 80.59MiB/s    Load segment chunks: 5.6%, time = 2.62s, I/O = 80.77MiB/s    Load segment chunks: 5.7%, time = 2.68s, I/O = 81.35MiB/s    Load segment chunks: 5.8%, time = 2.72s, I/O = 81.57MiB/s    Load segment chunks: 5.9%, time = 2.83s, I/O = 79.83MiB/s    Load segment chunks: 6.0%, time = 2.87s, I/O = 80.04MiB/s    Load segment chunks: 6.2%, time = 2.93s, I/O = 80.59MiB/s    Load segment chunks: 6.3%, time = 2.97s, I/O = 80.75MiB/s    Load segment chunks: 6.4%, time = 3.02s, I/O = 80.92MiB/s    Load segment chunks: 6.6%, time = 3.07s, I/O = 81.43MiB/s    Load segment chunks: 6.7%, time = 3.12s, I/O = 81.33MiB/s    Load segment chunks: 6.8%, time = 3.17s, I/O = 81.43MiB/s    Load segment chunks: 6.9%, time = 3.21s, I/O = 81.49MiB/s    Load segment chunks: 7.0%, time = 3.28s, I/O = 81.64MiB/s    Load segment chunks: 7.2%, time = 3.33s, I/O = 81.71MiB/s    Load segment chunks: 7.3%, time = 3.37s, I/O = 81.78MiB/s    Load segment chunks: 7.4%, time = 3.44s, I/O = 82.10MiB/s    Load segment chunks: 7.5%, time = 3.48s, I/O = 82.17MiB/s    Load segment chunks: 7.6%, time = 3.53s, I/O = 82.24MiB/s    Load segment chunks: 7.8%, time = 3.59s, I/O = 82.52MiB/s    Load segment chunks: 7.9%, time = 3.78s, I/O = 79.36MiB/s    Load segment chunks: 8.0%, time = 3.83s, I/O = 79.98MiB/s    Load segment chunks: 8.1%, time = 3.92s, I/O = 79.02MiB/s    Load segment chunks: 8.3%, time = 3.98s, I/O = 78.92MiB/s    Load segment chunks: 8.4%, time = 4.04s, I/O = 79.27MiB/s    Load segment chunks: 8.5%, time = 4.08s, I/O = 79.40MiB/s    Load segment chunks: 8.6%, time = 4.12s, I/O = 79.52MiB/s    Load segment chunks: 8.7%, time = 4.17s, I/O = 79.63MiB/s    Load segment chunks: 8.9%, time = 4.23s, I/O = 79.98MiB/s    Load segment chunks: 9.0%, time = 4.27s, I/O = 80.15MiB/s    Load segment chunks: 9.1%, time = 4.31s, I/O = 80.29MiB/s    Load segment chunks: 9.2%, time = 4.36s, I/O = 80.33MiB/s    Load segment chunks: 9.4%, time = 4.42s, I/O = 80.52MiB/s    Load segment chunks: 9.5%, time = 4.46s, I/O = 80.65MiB/s    Load segment chunks: 9.6%, time = 4.51s, I/O = 80.78MiB/s    Load segment chunks: 9.7%, time = 4.55s, I/O = 80.89MiB/s    Load segment chunks: 9.8%, time = 4.60s, I/O = 81.23MiB/s    Load segment chunks: 9.9%, time = 4.65s, I/O = 81.35MiB/s    Load segment chunks: 10.0%, time = 4.69s, I/O = 81.44MiB/s    Load segment chunks: 10.2%, time = 4.81s, I/O = 80.65MiB/s    Load segment chunks: 10.3%, time = 4.83s, I/O = 81.23MiB/s    Load segment chunks: 10.4%, time = 4.94s, I/O = 80.20MiB/s    Load segment chunks: 10.5%, time = 4.97s, I/O = 80.41MiB/s    Load segment chunks: 10.6%, time = 5.03s, I/O = 80.30MiB/s    Load segment chunks: 10.7%, time = 5.08s, I/O = 80.36MiB/s    Load segment chunks: 10.9%, time = 5.14s, I/O = 80.60MiB/s    Load segment chunks: 11.0%, time = 5.18s, I/O = 80.66MiB/s    Load segment chunks: 11.1%, time = 5.23s, I/O = 80.72MiB/s    Load segment chunks: 11.2%, time = 5.27s, I/O = 80.79MiB/s    Load segment chunks: 11.4%, time = 5.33s, I/O = 81.01MiB/s    Load segment chunks: 11.5%, time = 5.38s, I/O = 81.05MiB/s    Load segment chunks: 11.6%, time = 5.45s, I/O = 81.11MiB/s    Load segment chunks: 11.7%, time = 5.49s, I/O = 81.17MiB/s    Load segment chunks: 11.8%, time = 5.54s, I/O = 81.26MiB/s    Load segment chunks: 12.0%, time = 5.60s, I/O = 81.50MiB/s    Load segment chunks: 12.1%, time = 5.64s, I/O = 81.59MiB/s    Load segment chunks: 12.2%, time = 5.68s, I/O = 81.65MiB/s    Load segment chunks: 12.3%, time = 5.81s, I/O = 80.48MiB/s    Load segment chunks: 12.5%, time = 5.84s, I/O = 81.20MiB/s    Load segment chunks: 12.6%, time = 5.94s, I/O = 80.43MiB/s    Load segment chunks: 12.7%, time = 5.99s, I/O = 80.51MiB/s    Load segment chunks: 12.8%, time = 6.03s, I/O = 80.60MiB/s    Load segment chunks: 12.9%, time = 6.08s, I/O = 80.55MiB/s    Load segment chunks: 13.0%, time = 6.14s, I/O = 80.78MiB/s    Load segment chunks: 13.1%, time = 6.18s, I/O = 80.86MiB/s    Load segment chunks: 13.2%, time = 6.23s, I/O = 80.91MiB/s    Load segment chunks: 13.4%, time = 6.27s, I/O = 80.99MiB/s    Load segment chunks: 13.5%, time = 6.33s, I/O = 81.20MiB/s    Load segment chunks: 13.6%, time = 6.37s, I/O = 81.27MiB/s    Load segment chunks: 13.7%, time = 6.42s, I/O = 81.33MiB/s    Load segment chunks: 13.9%, time = 6.47s, I/O = 81.61MiB/s    Load segment chunks: 14.0%, time = 6.53s, I/O = 81.47MiB/s    Load segment chunks: 14.1%, time = 6.58s, I/O = 81.52MiB/s    Load segment chunks: 14.2%, time = 6.63s, I/O = 81.73MiB/s    Load segment chunks: 14.4%, time = 6.68s, I/O = 81.78MiB/s    Load segment chunks: 14.5%, time = 6.72s, I/O = 81.85MiB/s    Load segment chunks: 14.6%, time = 6.93s, I/O = 80.22MiB/s    Load segment chunks: 14.7%, time = 6.95s, I/O = 80.57MiB/s    Load segment chunks: 14.8%, time = 7.05s, I/O = 80.00MiB/s    Load segment chunks: 14.9%, time = 7.09s, I/O = 80.06MiB/s    Load segment chunks: 15.1%, time = 7.15s, I/O = 80.30MiB/s    Load segment chunks: 15.2%, time = 7.20s, I/O = 80.31MiB/s    Load segment chunks: 15.3%, time = 7.24s, I/O = 80.40MiB/s    Load segment chunks: 15.4%, time = 7.28s, I/O = 80.48MiB/s    Load segment chunks: 15.5%, time = 7.32s, I/O = 80.58MiB/s    Load segment chunks: 15.6%, time = 7.36s, I/O = 80.67MiB/s    Load segment chunks: 15.7%, time = 7.41s, I/O = 80.74MiB/s    Load segment chunks: 15.8%, time = 7.45s, I/O = 80.84MiB/s    Load segment chunks: 16.0%, time = 7.50s, I/O = 81.04MiB/s    Load segment chunks: 16.1%, time = 7.55s, I/O = 81.10MiB/s    Load segment chunks: 16.2%, time = 7.58s, I/O = 81.25MiB/s    Load segment chunks: 16.3%, time = 7.64s, I/O = 81.18MiB/s    Load segment chunks: 16.4%, time = 7.68s, I/O = 81.22MiB/s    Load segment chunks: 16.6%, time = 7.74s, I/O = 81.37MiB/s    Load segment chunks: 16.7%, time = 7.79s, I/O = 81.42MiB/s    Load segment chunks: 16.8%, time = 7.98s, I/O = 79.98MiB/s    Load segment chunks: 16.9%, time = 8.02s, I/O = 80.27MiB/s    Load segment chunks: 17.0%, time = 8.11s, I/O = 79.67MiB/s    Load segment chunks: 17.1%, time = 8.17s, I/O = 79.83MiB/s    Load segment chunks: 17.2%, time = 8.21s, I/O = 79.86MiB/s    Load segment chunks: 17.3%, time = 8.26s, I/O = 79.90MiB/s    Load segment chunks: 17.5%, time = 8.33s, I/O = 79.99MiB/s    Load segment chunks: 17.6%, time = 8.37s, I/O = 80.05MiB/s    Load segment chunks: 17.7%, time = 8.41s, I/O = 80.11MiB/s    Load segment chunks: 17.8%, time = 8.46s, I/O = 80.17MiB/s    Load segment chunks: 18.0%, time = 8.51s, I/O = 80.33MiB/s    Load segment chunks: 18.1%, time = 8.56s, I/O = 80.39MiB/s    Load segment chunks: 18.2%, time = 8.60s, I/O = 80.44MiB/s    Load segment chunks: 18.3%, time = 8.65s, I/O = 80.49MiB/s    Load segment chunks: 18.5%, time = 8.70s, I/O = 80.65MiB/s    Load segment chunks: 18.6%, time = 8.75s, I/O = 80.71MiB/s    Load segment chunks: 18.7%, time = 8.79s, I/O = 80.76MiB/s    Load segment chunks: 18.8%, time = 8.84s, I/O = 80.79MiB/s    Load segment chunks: 18.9%, time = 8.89s, I/O = 80.95MiB/s    Load segment chunks: 19.0%, time = 9.05s, I/O = 80.02MiB/s    Load segment chunks: 19.1%, time = 9.09s, I/O = 80.08MiB/s    Load segment chunks: 19.3%, time = 9.15s, I/O = 80.23MiB/s    Load segment chunks: 19.4%, time = 9.19s, I/O = 80.29MiB/s    Load segment chunks: 19.5%, time = 9.24s, I/O = 80.33MiB/s    Load segment chunks: 19.6%, time = 9.28s, I/O = 80.39MiB/s    Load segment chunks: 19.8%, time = 9.34s, I/O = 80.54MiB/s    Load segment chunks: 19.9%, time = 9.38s, I/O = 80.59MiB/s    Load segment chunks: 20.0%, time = 9.42s, I/O = 80.72MiB/s    Load segment chunks: 20.1%, time = 9.54s, I/O = 80.13MiB/s    Load segment chunks: 20.2%, time = 9.59s, I/O = 80.26MiB/s    Load segment chunks: 20.3%, time = 9.64s, I/O = 80.31MiB/s    Load segment chunks: 20.5%, time = 9.68s, I/O = 80.36MiB/s    Load segment chunks: 20.6%, time = 9.74s, I/O = 80.52MiB/s    Load segment chunks: 20.7%, time = 9.78s, I/O = 80.58MiB/s    Load segment chunks: 20.8%, time = 9.82s, I/O = 80.63MiB/s    Load segment chunks: 20.9%, time = 9.87s, I/O = 80.68MiB/s    Load segment chunks: 21.1%, time = 9.92s, I/O = 80.84MiB/s    Load segment chunks: 21.2%, time = 9.96s, I/O = 80.89MiB/s    Load segment chunks: 21.3%, time = 10.08s, I/O = 80.37MiB/s    Load segment chunks: 21.5%, time = 10.14s, I/O = 80.51MiB/s    Load segment chunks: 21.6%, time = 10.18s, I/O = 80.56MiB/s    Load segment chunks: 21.7%, time = 10.22s, I/O = 80.61MiB/s    Load segment chunks: 21.8%, time = 10.28s, I/O = 80.75MiB/s    Load segment chunks: 21.9%, time = 10.33s, I/O = 80.74MiB/s    Load segment chunks: 22.0%, time = 10.37s, I/O = 80.79MiB/s    Load segment chunks: 22.2%, time = 10.44s, I/O = 80.86MiB/s    Load segment chunks: 22.3%, time = 10.48s, I/O = 80.88MiB/s    Load segment chunks: 22.4%, time = 10.55s, I/O = 80.98MiB/s    Load segment chunks: 22.6%, time = 10.60s, I/O = 80.94MiB/s    Load segment chunks: 22.7%, time = 10.65s, I/O = 80.97MiB/s    Load segment chunks: 22.8%, time = 10.71s, I/O = 81.08MiB/s    Load segment chunks: 22.9%, time = 10.75s, I/O = 81.09MiB/s    Load segment chunks: 23.0%, time = 10.80s, I/O = 81.12MiB/s    Load segment chunks: 23.2%, time = 10.86s, I/O = 81.23MiB/s    Load segment chunks: 23.3%, time = 11.07s, I/O = 80.25MiB/s    Load segment chunks: 23.4%, time = 11.08s, I/O = 80.32MiB/s    Load segment chunks: 23.5%, time = 11.19s, I/O = 79.91MiB/s    Load segment chunks: 23.6%, time = 11.23s, I/O = 79.98MiB/s    Load segment chunks: 23.8%, time = 11.28s, I/O = 80.14MiB/s    Load segment chunks: 23.9%, time = 11.34s, I/O = 80.08MiB/s    Load segment chunks: 24.0%, time = 11.38s, I/O = 80.12MiB/s    Load segment chunks: 24.1%, time = 11.42s, I/O = 80.18MiB/s    Load segment chunks: 24.2%, time = 11.46s, I/O = 80.25MiB/s    Load segment chunks: 24.3%, time = 11.51s, I/O = 80.27MiB/s    Load segment chunks: 24.4%, time = 11.55s, I/O = 80.31MiB/s    Load segment chunks: 24.6%, time = 11.61s, I/O = 80.44MiB/s    Load segment chunks: 24.7%, time = 11.65s, I/O = 80.49MiB/s    Load segment chunks: 24.8%, time = 11.70s, I/O = 80.54MiB/s    Load segment chunks: 24.9%, time = 11.74s, I/O = 80.58MiB/s    Load segment chunks: 25.0%, time = 11.86s, I/O = 80.25MiB/s    Load segment chunks: 25.1%, time = 11.99s, I/O = 79.77MiB/s    Load segment chunks: 25.2%, time = 12.03s, I/O = 79.82MiB/s    Load segment chunks: 25.3%, time = 12.07s, I/O = 79.86MiB/s    Load segment chunks: 25.4%, time = 12.11s, I/O = 79.90MiB/s    Load segment chunks: 25.6%, time = 12.16s, I/O = 79.93MiB/s    Load segment chunks: 25.7%, time = 12.22s, I/O = 80.06MiB/s    Load segment chunks: 25.8%, time = 12.26s, I/O = 80.10MiB/s    Load segment chunks: 25.9%, time = 12.30s, I/O = 80.14MiB/s    Load segment chunks: 26.0%, time = 12.35s, I/O = 80.19MiB/s    Load segment chunks: 26.2%, time = 12.40s, I/O = 80.30MiB/s    Load segment chunks: 26.3%, time = 12.44s, I/O = 80.39MiB/s    Load segment chunks: 26.4%, time = 12.50s, I/O = 80.34MiB/s    Load segment chunks: 26.5%, time = 12.54s, I/O = 80.36MiB/s    Load segment chunks: 26.7%, time = 12.60s, I/O = 80.48MiB/s    Load segment chunks: 26.8%, time = 12.64s, I/O = 80.52MiB/s    Load segment chunks: 26.9%, time = 12.69s, I/O = 80.56MiB/s    Load segment chunks: 27.0%, time = 12.74s, I/O = 80.67MiB/s    Load segment chunks: 27.1%, time = 12.87s, I/O = 80.17MiB/s    Load segment chunks: 27.3%, time = 12.97s, I/O = 80.04MiB/s    Load segment chunks: 27.4%, time = 13.01s, I/O = 80.10MiB/s    Load segment chunks: 27.5%, time = 13.05s, I/O = 80.15MiB/s    Load segment chunks: 27.7%, time = 13.12s, I/O = 80.17MiB/s    Load segment chunks: 27.8%, time = 13.17s, I/O = 80.20MiB/s    Load segment chunks: 27.9%, time = 13.21s, I/O = 80.22MiB/s    Load segment chunks: 28.0%, time = 13.27s, I/O = 80.31MiB/s    Load segment chunks: 28.1%, time = 13.32s, I/O = 80.33MiB/s    Load segment chunks: 28.2%, time = 13.37s, I/O = 80.35MiB/s    Load segment chunks: 28.4%, time = 13.43s, I/O = 80.44MiB/s    Load segment chunks: 28.5%, time = 13.47s, I/O = 80.47MiB/s    Load segment chunks: 28.6%, time = 13.52s, I/O = 80.49MiB/s    Load segment chunks: 28.8%, time = 13.58s, I/O = 80.56MiB/s    Load segment chunks: 28.9%, time = 13.64s, I/O = 80.51MiB/s    Load segment chunks: 29.0%, time = 13.68s, I/O = 80.54MiB/s    Load segment chunks: 29.1%, time = 13.74s, I/O = 80.64MiB/s    Load segment chunks: 29.2%, time = 13.78s, I/O = 80.67MiB/s    Load segment chunks: 29.4%, time = 13.98s, I/O = 80.09MiB/s    Load segment chunks: 29.5%, time = 14.07s, I/O = 79.74MiB/s    Load segment chunks: 29.6%, time = 14.12s, I/O = 79.77MiB/s    Load segment chunks: 29.8%, time = 14.17s, I/O = 79.87MiB/s    Load segment chunks: 29.9%, time = 14.22s, I/O = 79.90MiB/s    Load segment chunks: 30.0%, time = 14.26s, I/O = 79.94MiB/s    Load segment chunks: 30.1%, time = 14.33s, I/O = 79.96MiB/s    Load segment chunks: 30.2%, time = 14.38s, I/O = 80.00MiB/s    Load segment chunks: 30.3%, time = 14.42s, I/O = 80.03MiB/s    Load segment chunks: 30.5%, time = 14.48s, I/O = 80.12MiB/s    Load segment chunks: 30.6%, time = 14.52s, I/O = 80.16MiB/s    Load segment chunks: 30.7%, time = 14.56s, I/O = 80.21MiB/s    Load segment chunks: 30.9%, time = 14.62s, I/O = 80.28MiB/s    Load segment chunks: 31.0%, time = 14.67s, I/O = 80.30MiB/s    Load segment chunks: 31.1%, time = 14.71s, I/O = 80.34MiB/s    Load segment chunks: 31.2%, time = 14.77s, I/O = 80.43MiB/s    Load segment chunks: 31.3%, time = 14.81s, I/O = 80.50MiB/s    Load segment chunks: 31.4%, time = 14.86s, I/O = 80.47MiB/s    Load segment chunks: 31.5%, time = 15.01s, I/O = 79.92MiB/s    Load segment chunks: 31.7%, time = 15.06s, I/O = 79.96MiB/s    Load segment chunks: 31.8%, time = 15.10s, I/O = 80.00MiB/s    Load segment chunks: 31.9%, time = 15.14s, I/O = 80.04MiB/s    Load segment chunks: 32.0%, time = 15.18s, I/O = 80.08MiB/s    Load segment chunks: 32.1%, time = 15.24s, I/O = 80.17MiB/s    Load segment chunks: 32.2%, time = 15.28s, I/O = 80.21MiB/s    Load segment chunks: 32.3%, time = 15.33s, I/O = 80.25MiB/s    Load segment chunks: 32.4%, time = 15.37s, I/O = 80.29MiB/s    Load segment chunks: 32.5%, time = 15.41s, I/O = 80.33MiB/s    Load segment chunks: 32.6%, time = 15.46s, I/O = 80.36MiB/s    Load segment chunks: 32.8%, time = 15.50s, I/O = 80.40MiB/s    Load segment chunks: 32.9%, time = 15.53s, I/O = 80.47MiB/s    Load segment chunks: 33.0%, time = 15.60s, I/O = 80.54MiB/s    Load segment chunks: 33.1%, time = 15.64s, I/O = 80.57MiB/s    Load segment chunks: 33.2%, time = 15.68s, I/O = 80.61MiB/s    Load segment chunks: 33.3%, time = 15.72s, I/O = 80.64MiB/s    Load segment chunks: 33.4%, time = 15.76s, I/O = 80.69MiB/s    Load segment chunks: 33.6%, time = 15.82s, I/O = 80.79MiB/s    Load segment chunks: 33.7%, time = 15.96s, I/O = 80.34MiB/s    Load segment chunks: 33.8%, time = 15.97s, I/O = 80.54MiB/s    Load segment chunks: 33.9%, time = 16.09s, I/O = 80.20MiB/s    Load segment chunks: 34.0%, time = 16.13s, I/O = 80.23MiB/s    Load segment chunks: 34.1%, time = 16.17s, I/O = 80.28MiB/s    Load segment chunks: 34.2%, time = 16.21s, I/O = 80.32MiB/s    Load segment chunks: 34.4%, time = 16.27s, I/O = 80.41MiB/s    Load segment chunks: 34.5%, time = 16.31s, I/O = 80.45MiB/s    Load segment chunks: 34.6%, time = 16.35s, I/O = 80.49MiB/s    Load segment chunks: 34.7%, time = 16.39s, I/O = 80.53MiB/s    Load segment chunks: 34.8%, time = 16.43s, I/O = 80.56MiB/s    Load segment chunks: 34.9%, time = 16.48s, I/O = 80.60MiB/s    Load segment chunks: 35.1%, time = 16.53s, I/O = 80.70MiB/s    Load segment chunks: 35.2%, time = 16.57s, I/O = 80.73MiB/s    Load segment chunks: 35.3%, time = 16.62s, I/O = 80.76MiB/s    Load segment chunks: 35.4%, time = 16.66s, I/O = 80.80MiB/s    Load segment chunks: 35.5%, time = 16.72s, I/O = 80.84MiB/s    Load segment chunks: 35.6%, time = 16.77s, I/O = 80.86MiB/s    Load segment chunks: 35.8%, time = 16.81s, I/O = 80.88MiB/s    Load segment chunks: 35.9%, time = 16.86s, I/O = 80.91MiB/s    Load segment chunks: 36.1%, time = 17.06s, I/O = 80.41MiB/s    Load segment chunks: 36.1%, time = 17.15s, I/O = 80.11MiB/s    Load segment chunks: 36.2%, time = 17.20s, I/O = 80.13MiB/s    Load segment chunks: 36.4%, time = 17.25s, I/O = 80.22MiB/s    Load segment chunks: 36.5%, time = 17.31s, I/O = 80.18MiB/s    Load segment chunks: 36.6%, time = 17.37s, I/O = 80.26MiB/s    Load segment chunks: 36.8%, time = 17.41s, I/O = 80.28MiB/s    Load segment chunks: 36.9%, time = 17.46s, I/O = 80.29MiB/s    Load segment chunks: 37.0%, time = 17.52s, I/O = 80.38MiB/s    Load segment chunks: 37.1%, time = 17.56s, I/O = 80.40MiB/s    Load segment chunks: 37.3%, time = 17.62s, I/O = 80.48MiB/s    Load segment chunks: 37.4%, time = 17.66s, I/O = 80.51MiB/s    Load segment chunks: 37.5%, time = 17.71s, I/O = 80.53MiB/s    Load segment chunks: 37.6%, time = 17.77s, I/O = 80.60MiB/s    Load segment chunks: 37.7%, time = 17.81s, I/O = 80.62MiB/s    Load segment chunks: 37.9%, time = 17.86s, I/O = 80.63MiB/s    Load segment chunks: 38.0%, time = 17.92s, I/O = 80.71MiB/s    Load segment chunks: 38.1%, time = 17.96s, I/O = 80.73MiB/s    Load segment chunks: 38.3%, time = 18.02s, I/O = 80.80MiB/s    Load segment chunks: 38.4%, time = 18.06s, I/O = 80.82MiB/s    Load segment chunks: 38.5%, time = 18.11s, I/O = 80.84MiB/s    Load segment chunks: 38.6%, time = 18.17s, I/O = 80.92MiB/s    Load segment chunks: 38.7%, time = 18.38s, I/O = 80.19MiB/s    Load segment chunks: 38.9%, time = 18.42s, I/O = 80.25MiB/s    Load segment chunks: 39.0%, time = 18.53s, I/O = 80.10MiB/s    Load segment chunks: 39.1%, time = 18.57s, I/O = 80.12MiB/s    Load segment chunks: 39.2%, time = 18.62s, I/O = 80.15MiB/s    Load segment chunks: 39.4%, time = 18.67s, I/O = 80.22MiB/s    Load segment chunks: 39.5%, time = 18.72s, I/O = 80.25MiB/s    Load segment chunks: 39.6%, time = 18.76s, I/O = 80.27MiB/s    Load segment chunks: 39.7%, time = 18.80s, I/O = 80.31MiB/s    Load segment chunks: 39.8%, time = 18.85s, I/O = 80.34MiB/s    Load segment chunks: 39.9%, time = 18.89s, I/O = 80.37MiB/s    Load segment chunks: 40.1%, time = 18.95s, I/O = 80.44MiB/s    Load segment chunks: 40.2%, time = 18.99s, I/O = 80.47MiB/s    Load segment chunks: 40.3%, time = 19.03s, I/O = 80.50MiB/s    Load segment chunks: 40.4%, time = 19.07s, I/O = 80.53MiB/s    Load segment chunks: 40.5%, time = 19.12s, I/O = 80.56MiB/s    Load segment chunks: 40.6%, time = 19.16s, I/O = 80.59MiB/s    Load segment chunks: 40.7%, time = 19.20s, I/O = 80.63MiB/s    Load segment chunks: 40.9%, time = 19.26s, I/O = 80.68MiB/s    Load segment chunks: 41.0%, time = 19.30s, I/O = 80.70MiB/s    Load segment chunks: 41.1%, time = 19.46s, I/O = 80.37MiB/s    Load segment chunks: 41.2%, time = 19.48s, I/O = 80.50MiB/s    Load segment chunks: 41.3%, time = 19.60s, I/O = 80.19MiB/s    Load segment chunks: 41.4%, time = 19.65s, I/O = 80.21MiB/s    Load segment chunks: 41.6%, time = 19.70s, I/O = 80.30MiB/s    Load segment chunks: 41.7%, time = 19.74s, I/O = 80.32MiB/s    Load segment chunks: 41.8%, time = 19.79s, I/O = 80.36MiB/s    Load segment chunks: 41.9%, time = 19.83s, I/O = 80.38MiB/s    Load segment chunks: 42.1%, time = 19.89s, I/O = 80.46MiB/s    Load segment chunks: 42.2%, time = 19.93s, I/O = 80.49MiB/s    Load segment chunks: 42.3%, time = 19.97s, I/O = 80.52MiB/s    Load segment chunks: 42.4%, time = 20.01s, I/O = 80.55MiB/s    Load segment chunks: 42.5%, time = 20.07s, I/O = 80.62MiB/s    Load segment chunks: 42.6%, time = 20.11s, I/O = 80.65MiB/s    Load segment chunks: 42.7%, time = 20.15s, I/O = 80.68MiB/s    Load segment chunks: 42.9%, time = 20.21s, I/O = 80.75MiB/s    Load segment chunks: 43.0%, time = 20.25s, I/O = 80.78MiB/s    Load segment chunks: 43.1%, time = 20.29s, I/O = 80.81MiB/s    Load segment chunks: 43.2%, time = 20.34s, I/O = 80.83MiB/s    Load segment chunks: 43.3%, time = 20.47s, I/O = 80.51MiB/s    Load segment chunks: 43.5%, time = 20.49s, I/O = 80.71MiB/s    Load segment chunks: 43.6%, time = 20.60s, I/O = 80.47MiB/s    Load segment chunks: 43.7%, time = 20.65s, I/O = 80.49MiB/s    Load segment chunks: 43.8%, time = 20.71s, I/O = 80.54MiB/s    Load segment chunks: 44.0%, time = 20.76s, I/O = 80.56MiB/s    Load segment chunks: 44.1%, time = 20.80s, I/O = 80.57MiB/s    Load segment chunks: 44.2%, time = 20.86s, I/O = 80.62MiB/s    Load segment chunks: 44.3%, time = 20.91s, I/O = 80.64MiB/s    Load segment chunks: 44.5%, time = 20.97s, I/O = 80.69MiB/s    Load segment chunks: 44.6%, time = 21.02s, I/O = 80.70MiB/s    Load segment chunks: 44.7%, time = 21.06s, I/O = 80.71MiB/s    Load segment chunks: 44.8%, time = 21.12s, I/O = 80.76MiB/s    Load segment chunks: 45.0%, time = 21.17s, I/O = 80.79MiB/s    Load segment chunks: 45.1%, time = 21.21s, I/O = 80.80MiB/s    Load segment chunks: 45.2%, time = 21.26s, I/O = 80.82MiB/s    Load segment chunks: 45.3%, time = 21.30s, I/O = 80.85MiB/s    Load segment chunks: 45.4%, time = 21.34s, I/O = 80.87MiB/s    Load segment chunks: 45.5%, time = 21.55s, I/O = 80.28MiB/s    Load segment chunks: 45.6%, time = 21.65s, I/O = 80.19MiB/s    Load segment chunks: 45.7%, time = 21.70s, I/O = 80.20MiB/s    Load segment chunks: 45.8%, time = 21.74s, I/O = 80.23MiB/s    Load segment chunks: 46.0%, time = 21.78s, I/O = 80.24MiB/s    Load segment chunks: 46.1%, time = 21.83s, I/O = 80.26MiB/s    Load segment chunks: 46.2%, time = 21.87s, I/O = 80.28MiB/s    Load segment chunks: 46.3%, time = 21.92s, I/O = 80.30MiB/s    Load segment chunks: 46.4%, time = 21.98s, I/O = 80.34MiB/s    Load segment chunks: 46.5%, time = 22.02s, I/O = 80.37MiB/s    Load segment chunks: 46.6%, time = 22.07s, I/O = 80.39MiB/s    Load segment chunks: 46.7%, time = 22.11s, I/O = 80.42MiB/s    Load segment chunks: 46.9%, time = 22.17s, I/O = 80.48MiB/s    Load segment chunks: 47.0%, time = 22.21s, I/O = 80.50MiB/s    Load segment chunks: 47.1%, time = 22.25s, I/O = 80.53MiB/s    Load segment chunks: 47.2%, time = 22.30s, I/O = 80.55MiB/s    Load segment chunks: 47.4%, time = 22.36s, I/O = 80.61MiB/s    Load segment chunks: 47.5%, time = 22.40s, I/O = 80.62MiB/s    Load segment chunks: 47.6%, time = 22.44s, I/O = 80.66MiB/s    Load segment chunks: 47.8%, time = 22.65s, I/O = 80.25MiB/s    Load segment chunks: 47.8%, time = 22.75s, I/O = 80.01MiB/s    Load segment chunks: 47.9%, time = 22.79s, I/O = 80.03MiB/s    Load segment chunks: 48.1%, time = 22.85s, I/O = 80.09MiB/s    Load segment chunks: 48.2%, time = 22.89s, I/O = 80.11MiB/s    Load segment chunks: 48.3%, time = 22.94s, I/O = 80.13MiB/s    Load segment chunks: 48.5%, time = 23.00s, I/O = 80.19MiB/s    Load segment chunks: 48.6%, time = 23.04s, I/O = 80.21MiB/s    Load segment chunks: 48.7%, time = 23.09s, I/O = 80.22MiB/s    Load segment chunks: 48.8%, time = 23.14s, I/O = 80.29MiB/s    Load segment chunks: 48.9%, time = 23.18s, I/O = 80.31MiB/s    Load segment chunks: 49.1%, time = 23.23s, I/O = 80.33MiB/s    Load segment chunks: 49.2%, time = 23.27s, I/O = 80.36MiB/s    Load segment chunks: 49.3%, time = 23.31s, I/O = 80.38MiB/s    Load segment chunks: 49.4%, time = 23.36s, I/O = 80.41MiB/s    Load segment chunks: 49.5%, time = 23.54s, I/O = 80.05MiB/s    Load segment chunks: 49.6%, time = 23.55s, I/O = 80.18MiB/s    Load segment chunks: 49.7%, time = 23.67s, I/O = 79.94MiB/s    Load segment chunks: 49.8%, time = 23.71s, I/O = 79.97MiB/s    Load segment chunks: 50.0%, time = 23.77s, I/O = 80.02MiB/s    Load segment chunks: 50.1%, time = 23.81s, I/O = 80.04MiB/s    Load segment chunks: 50.2%, time = 23.86s, I/O = 80.06MiB/s    Load segment chunks: 50.3%, time = 23.90s, I/O = 80.09MiB/s    Load segment chunks: 50.4%, time = 23.94s, I/O = 80.11MiB/s    Load segment chunks: 50.6%, time = 24.00s, I/O = 80.17MiB/s    Load segment chunks: 50.7%, time = 24.04s, I/O = 80.18MiB/s    Load segment chunks: 50.8%, time = 24.09s, I/O = 80.21MiB/s    Load segment chunks: 50.9%, time = 24.15s, I/O = 80.25MiB/s    Load segment chunks: 51.1%, time = 24.21s, I/O = 80.30MiB/s    Load segment chunks: 51.2%, time = 24.25s, I/O = 80.31MiB/s    Load segment chunks: 51.4%, time = 24.31s, I/O = 80.37MiB/s    Load segment chunks: 51.5%, time = 24.36s, I/O = 80.38MiB/s    Load segment chunks: 51.6%, time = 24.40s, I/O = 80.40MiB/s    Load segment chunks: 51.7%, time = 24.46s, I/O = 80.45MiB/s    Load segment chunks: 51.9%, time = 24.61s, I/O = 80.21MiB/s    Load segment chunks: 52.0%, time = 24.72s, I/O = 80.02MiB/s    Load segment chunks: 52.1%, time = 24.76s, I/O = 80.04MiB/s    Load segment chunks: 52.3%, time = 24.82s, I/O = 80.11MiB/s    Load segment chunks: 52.4%, time = 24.86s, I/O = 80.11MiB/s    Load segment chunks: 52.5%, time = 24.92s, I/O = 80.17MiB/s    Load segment chunks: 52.6%, time = 24.97s, I/O = 80.19MiB/s    Load segment chunks: 52.8%, time = 25.02s, I/O = 80.26MiB/s    Load segment chunks: 52.9%, time = 25.07s, I/O = 80.24MiB/s    Load segment chunks: 53.0%, time = 25.13s, I/O = 80.30MiB/s    Load segment chunks: 53.2%, time = 25.18s, I/O = 80.31MiB/s    Load segment chunks: 53.3%, time = 25.35s, I/O = 80.00MiB/s    Load segment chunks: 53.4%, time = 25.39s, I/O = 80.02MiB/s    Load segment chunks: 53.6%, time = 25.45s, I/O = 80.08MiB/s    Load segment chunks: 53.7%, time = 25.50s, I/O = 80.08MiB/s    Load segment chunks: 53.8%, time = 25.56s, I/O = 80.12MiB/s    Load segment chunks: 53.9%, time = 25.61s, I/O = 80.13MiB/s    Load segment chunks: 54.1%, time = 25.68s, I/O = 80.15MiB/s    Load segment chunks: 54.2%, time = 25.73s, I/O = 80.15MiB/s    Load segment chunks: 54.4%, time = 25.79s, I/O = 80.18MiB/s    Load segment chunks: 54.5%, time = 25.85s, I/O = 80.23MiB/s    Load segment chunks: 54.6%, time = 25.90s, I/O = 80.24MiB/s    Load segment chunks: 54.7%, time = 25.95s, I/O = 80.25MiB/s    Load segment chunks: 54.8%, time = 25.99s, I/O = 80.27MiB/s    Load segment chunks: 55.0%, time = 26.05s, I/O = 80.31MiB/s    Load segment chunks: 55.1%, time = 26.10s, I/O = 80.32MiB/s    Load segment chunks: 55.2%, time = 26.29s, I/O = 79.89MiB/s    Load segment chunks: 55.4%, time = 26.44s, I/O = 79.67MiB/s    Load segment chunks: 55.5%, time = 26.48s, I/O = 79.69MiB/s    Load segment chunks: 55.6%, time = 26.52s, I/O = 79.70MiB/s    Load segment chunks: 55.7%, time = 26.58s, I/O = 79.76MiB/s    Load segment chunks: 55.8%, time = 26.63s, I/O = 79.77MiB/s    Load segment chunks: 55.9%, time = 26.67s, I/O = 79.79MiB/s    Load segment chunks: 56.0%, time = 26.71s, I/O = 79.82MiB/s    Load segment chunks: 56.2%, time = 26.77s, I/O = 79.87MiB/s    Load segment chunks: 56.3%, time = 26.81s, I/O = 79.89MiB/s    Load segment chunks: 56.4%, time = 26.86s, I/O = 79.91MiB/s    Load segment chunks: 56.5%, time = 26.90s, I/O = 79.92MiB/s    Load segment chunks: 56.7%, time = 26.96s, I/O = 79.97MiB/s    Load segment chunks: 56.8%, time = 27.01s, I/O = 79.98MiB/s    Load segment chunks: 56.9%, time = 27.05s, I/O = 80.01MiB/s    Load segment chunks: 57.0%, time = 27.11s, I/O = 80.05MiB/s    Load segment chunks: 57.1%, time = 27.15s, I/O = 80.06MiB/s    Load segment chunks: 57.3%, time = 27.21s, I/O = 80.11MiB/s    Load segment chunks: 57.5%, time = 27.37s, I/O = 79.88MiB/s    Load segment chunks: 57.5%, time = 27.39s, I/O = 79.89MiB/s    Load segment chunks: 57.7%, time = 27.52s, I/O = 79.72MiB/s    Load segment chunks: 57.8%, time = 27.57s, I/O = 79.73MiB/s    Load segment chunks: 57.9%, time = 27.62s, I/O = 79.79MiB/s    Load segment chunks: 58.0%, time = 27.66s, I/O = 79.81MiB/s    Load segment chunks: 58.1%, time = 27.71s, I/O = 79.83MiB/s    Load segment chunks: 58.3%, time = 27.75s, I/O = 79.85MiB/s    Load segment chunks: 58.4%, time = 27.81s, I/O = 79.91MiB/s    Load segment chunks: 58.5%, time = 27.85s, I/O = 79.93MiB/s    Load segment chunks: 58.6%, time = 27.89s, I/O = 79.95MiB/s    Load segment chunks: 58.8%, time = 27.95s, I/O = 80.00MiB/s    Load segment chunks: 58.9%, time = 27.99s, I/O = 80.04MiB/s    Load segment chunks: 59.0%, time = 28.11s, I/O = 79.84MiB/s    Load segment chunks: 59.1%, time = 28.17s, I/O = 79.88MiB/s    Load segment chunks: 59.3%, time = 28.21s, I/O = 79.90MiB/s    Load segment chunks: 59.4%, time = 28.26s, I/O = 79.90MiB/s    Load segment chunks: 59.5%, time = 28.32s, I/O = 79.95MiB/s    Load segment chunks: 59.6%, time = 28.37s, I/O = 79.96MiB/s    Load segment chunks: 59.7%, time = 28.41s, I/O = 79.97MiB/s    Load segment chunks: 59.9%, time = 28.47s, I/O = 80.01MiB/s    Load segment chunks: 60.0%, time = 28.58s, I/O = 79.84MiB/s    Load segment chunks: 60.1%, time = 28.63s, I/O = 79.85MiB/s    Load segment chunks: 60.2%, time = 28.68s, I/O = 79.86MiB/s    Load segment chunks: 60.4%, time = 28.73s, I/O = 79.90MiB/s    Load segment chunks: 60.5%, time = 28.78s, I/O = 79.92MiB/s    Load segment chunks: 60.6%, time = 28.82s, I/O = 79.94MiB/s    Load segment chunks: 60.7%, time = 28.87s, I/O = 79.95MiB/s    Load segment chunks: 60.8%, time = 28.93s, I/O = 80.00MiB/s    Load segment chunks: 60.9%, time = 28.97s, I/O = 80.02MiB/s    Load segment chunks: 61.0%, time = 29.01s, I/O = 80.03MiB/s    Load segment chunks: 61.1%, time = 29.06s, I/O = 80.05MiB/s    Load segment chunks: 61.3%, time = 29.12s, I/O = 80.07MiB/s    Load segment chunks: 61.4%, time = 29.17s, I/O = 80.09MiB/s    Load segment chunks: 61.5%, time = 29.21s, I/O = 80.12MiB/s    Load segment chunks: 61.6%, time = 29.25s, I/O = 80.13MiB/s    Load segment chunks: 61.8%, time = 29.31s, I/O = 80.17MiB/s    Load segment chunks: 61.9%, time = 29.36s, I/O = 80.18MiB/s    Load segment chunks: 62.1%, time = 29.56s, I/O = 79.90MiB/s    Load segment chunks: 62.1%, time = 29.65s, I/O = 79.72MiB/s    Load segment chunks: 62.2%, time = 29.69s, I/O = 79.75MiB/s    Load segment chunks: 62.4%, time = 29.77s, I/O = 79.75MiB/s    Load segment chunks: 62.5%, time = 29.81s, I/O = 79.77MiB/s    Load segment chunks: 62.7%, time = 29.87s, I/O = 79.82MiB/s    Load segment chunks: 62.8%, time = 29.91s, I/O = 79.83MiB/s    Load segment chunks: 62.9%, time = 29.96s, I/O = 79.85MiB/s    Load segment chunks: 63.0%, time = 30.02s, I/O = 79.89MiB/s    Load segment chunks: 63.1%, time = 30.06s, I/O = 79.90MiB/s    Load segment chunks: 63.2%, time = 30.11s, I/O = 79.92MiB/s    Load segment chunks: 63.4%, time = 30.16s, I/O = 79.96MiB/s    Load segment chunks: 63.5%, time = 30.20s, I/O = 79.99MiB/s    Load segment chunks: 63.7%, time = 30.27s, I/O = 80.02MiB/s    Load segment chunks: 63.8%, time = 30.31s, I/O = 80.03MiB/s    Load segment chunks: 63.9%, time = 30.35s, I/O = 80.06MiB/s    Load segment chunks: 64.0%, time = 30.41s, I/O = 80.10MiB/s    Load segment chunks: 64.1%, time = 30.46s, I/O = 80.12MiB/s    Load segment chunks: 64.3%, time = 30.51s, I/O = 80.16MiB/s    Load segment chunks: 64.4%, time = 30.56s, I/O = 80.18MiB/s    Load segment chunks: 64.5%, time = 30.60s, I/O = 80.20MiB/s    Load segment chunks: 64.6%, time = 30.65s, I/O = 80.19MiB/s    Load segment chunks: 64.8%, time = 30.91s, I/O = 79.71MiB/s    Load segment chunks: 64.9%, time = 31.03s, I/O = 79.53MiB/s    Load segment chunks: 65.0%, time = 31.08s, I/O = 79.54MiB/s    Load segment chunks: 65.1%, time = 31.12s, I/O = 79.55MiB/s    Load segment chunks: 65.2%, time = 31.18s, I/O = 79.59MiB/s    Load segment chunks: 65.4%, time = 31.23s, I/O = 79.60MiB/s    Load segment chunks: 65.5%, time = 31.28s, I/O = 79.61MiB/s    Load segment chunks: 65.6%, time = 31.32s, I/O = 79.63MiB/s    Load segment chunks: 65.7%, time = 31.38s, I/O = 79.66MiB/s    Load segment chunks: 65.8%, time = 31.42s, I/O = 79.69MiB/s    Load segment chunks: 65.9%, time = 31.48s, I/O = 79.68MiB/s    Load segment chunks: 66.1%, time = 31.54s, I/O = 79.72MiB/s    Load segment chunks: 66.2%, time = 31.58s, I/O = 79.73MiB/s    Load segment chunks: 66.3%, time = 31.63s, I/O = 79.74MiB/s    Load segment chunks: 66.4%, time = 31.67s, I/O = 79.76MiB/s    Load segment chunks: 66.6%, time = 31.73s, I/O = 79.80MiB/s    Load segment chunks: 66.7%, time = 31.77s, I/O = 79.82MiB/s    Load segment chunks: 66.8%, time = 31.91s, I/O = 79.61MiB/s    Load segment chunks: 66.9%, time = 32.02s, I/O = 79.52MiB/s    Load segment chunks: 67.0%, time = 32.06s, I/O = 79.54MiB/s    Load segment chunks: 67.1%, time = 32.10s, I/O = 79.55MiB/s    Load segment chunks: 67.2%, time = 32.15s, I/O = 79.57MiB/s    Load segment chunks: 67.4%, time = 32.21s, I/O = 79.61MiB/s    Load segment chunks: 67.5%, time = 32.25s, I/O = 79.63MiB/s    Load segment chunks: 67.6%, time = 32.30s, I/O = 79.64MiB/s    Load segment chunks: 67.8%, time = 32.35s, I/O = 79.68MiB/s    Load segment chunks: 67.9%, time = 32.40s, I/O = 79.69MiB/s    Load segment chunks: 68.0%, time = 32.46s, I/O = 79.74MiB/s    Load segment chunks: 68.1%, time = 32.50s, I/O = 79.76MiB/s    Load segment chunks: 68.2%, time = 32.56s, I/O = 79.74MiB/s    Load segment chunks: 68.4%, time = 32.61s, I/O = 79.79MiB/s    Load segment chunks: 68.5%, time = 32.66s, I/O = 79.80MiB/s    Load segment chunks: 68.6%, time = 32.70s, I/O = 79.82MiB/s    Load segment chunks: 68.7%, time = 32.75s, I/O = 79.83MiB/s    Load segment chunks: 68.9%, time = 32.80s, I/O = 79.87MiB/s    Load segment chunks: 69.0%, time = 33.03s, I/O = 79.51MiB/s    Load segment chunks: 69.1%, time = 33.05s, I/O = 79.58MiB/s    Load segment chunks: 69.2%, time = 33.17s, I/O = 79.41MiB/s    Load segment chunks: 69.3%, time = 33.21s, I/O = 79.43MiB/s    Load segment chunks: 69.5%, time = 33.27s, I/O = 79.47MiB/s    Load segment chunks: 69.6%, time = 33.31s, I/O = 79.49MiB/s    Load segment chunks: 69.7%, time = 33.36s, I/O = 79.50MiB/s    Load segment chunks: 69.8%, time = 33.49s, I/O = 79.30MiB/s    Load segment chunks: 70.0%, time = 33.51s, I/O = 79.43MiB/s    Load segment chunks: 70.1%, time = 33.56s, I/O = 79.43MiB/s    Load segment chunks: 70.2%, time = 33.61s, I/O = 79.45MiB/s    Load segment chunks: 70.3%, time = 33.66s, I/O = 79.49MiB/s    Load segment chunks: 70.5%, time = 33.70s, I/O = 79.52MiB/s    Load segment chunks: 70.6%, time = 33.76s, I/O = 79.51MiB/s    Load segment chunks: 70.7%, time = 33.81s, I/O = 79.55MiB/s    Load segment chunks: 70.8%, time = 33.86s, I/O = 79.57MiB/s    Load segment chunks: 70.9%, time = 33.90s, I/O = 79.58MiB/s    Load segment chunks: 71.0%, time = 33.95s, I/O = 79.60MiB/s    Load segment chunks: 71.2%, time = 34.00s, I/O = 79.64MiB/s    Load segment chunks: 71.3%, time = 34.05s, I/O = 79.66MiB/s    Load segment chunks: 71.5%, time = 34.26s, I/O = 79.34MiB/s    Load segment chunks: 71.5%, time = 34.28s, I/O = 79.36MiB/s    Load segment chunks: 71.7%, time = 34.40s, I/O = 79.24MiB/s    Load segment chunks: 71.8%, time = 34.45s, I/O = 79.25MiB/s    Load segment chunks: 71.9%, time = 34.49s, I/O = 79.27MiB/s    Load segment chunks: 72.0%, time = 34.53s, I/O = 79.28MiB/s    Load segment chunks: 72.1%, time = 34.58s, I/O = 79.30MiB/s    Load segment chunks: 72.2%, time = 34.64s, I/O = 79.34MiB/s    Load segment chunks: 72.3%, time = 34.68s, I/O = 79.36MiB/s    Load segment chunks: 72.4%, time = 34.72s, I/O = 79.38MiB/s    Load segment chunks: 72.6%, time = 34.77s, I/O = 79.39MiB/s    Load segment chunks: 72.7%, time = 34.82s, I/O = 79.43MiB/s    Load segment chunks: 72.8%, time = 34.87s, I/O = 79.44MiB/s    Load segment chunks: 72.9%, time = 34.92s, I/O = 79.45MiB/s    Load segment chunks: 73.0%, time = 34.96s, I/O = 79.46MiB/s    Load segment chunks: 73.2%, time = 35.02s, I/O = 79.50MiB/s    Load segment chunks: 73.3%, time = 35.07s, I/O = 79.51MiB/s    Load segment chunks: 73.4%, time = 35.11s, I/O = 79.52MiB/s    Load segment chunks: 73.5%, time = 35.31s, I/O = 79.19MiB/s    Load segment chunks: 73.7%, time = 35.35s, I/O = 79.27MiB/s    Load segment chunks: 73.8%, time = 35.44s, I/O = 79.17MiB/s    Load segment chunks: 73.9%, time = 35.49s, I/O = 79.18MiB/s    Load segment chunks: 74.0%, time = 35.53s, I/O = 79.20MiB/s    Load segment chunks: 74.1%, time = 35.59s, I/O = 79.23MiB/s    Load segment chunks: 74.2%, time = 35.64s, I/O = 79.24MiB/s    Load segment chunks: 74.3%, time = 35.68s, I/O = 79.26MiB/s    Load segment chunks: 74.5%, time = 35.74s, I/O = 79.29MiB/s    Load segment chunks: 74.6%, time = 35.78s, I/O = 79.31MiB/s    Load segment chunks: 74.7%, time = 35.83s, I/O = 79.33MiB/s    Load segment chunks: 74.8%, time = 35.87s, I/O = 79.34MiB/s    Load segment chunks: 74.9%, time = 35.91s, I/O = 79.36MiB/s    Load segment chunks: 75.1%, time = 35.97s, I/O = 79.40MiB/s    Load segment chunks: 75.2%, time = 36.01s, I/O = 79.41MiB/s    Load segment chunks: 75.3%, time = 36.05s, I/O = 79.44MiB/s    Load segment chunks: 75.4%, time = 36.10s, I/O = 79.44MiB/s    Load segment chunks: 75.5%, time = 36.15s, I/O = 79.45MiB/s    Load segment chunks: 75.7%, time = 36.21s, I/O = 79.49MiB/s    Load segment chunks: 75.8%, time = 36.28s, I/O = 79.43MiB/s    Load segment chunks: 75.9%, time = 36.40s, I/O = 79.28MiB/s    Load segment chunks: 76.0%, time = 36.44s, I/O = 79.30MiB/s    Load segment chunks: 76.1%, time = 36.50s, I/O = 79.34MiB/s    Load segment chunks: 76.2%, time = 36.55s, I/O = 79.35MiB/s    Load segment chunks: 76.3%, time = 36.59s, I/O = 79.37MiB/s    Load segment chunks: 76.4%, time = 36.63s, I/O = 79.38MiB/s    Load segment chunks: 76.5%, time = 36.67s, I/O = 79.41MiB/s    Load segment chunks: 76.7%, time = 36.75s, I/O = 79.41MiB/s    Load segment chunks: 76.8%, time = 36.79s, I/O = 79.42MiB/s    Load segment chunks: 76.9%, time = 36.84s, I/O = 79.43MiB/s    Load segment chunks: 77.1%, time = 36.90s, I/O = 79.45MiB/s    Load segment chunks: 77.2%, time = 36.95s, I/O = 79.47MiB/s    Load segment chunks: 77.3%, time = 36.99s, I/O = 79.47MiB/s    Load segment chunks: 77.4%, time = 37.04s, I/O = 79.49MiB/s    Load segment chunks: 77.5%, time = 37.08s, I/O = 79.50MiB/s    Load segment chunks: 77.7%, time = 37.14s, I/O = 79.54MiB/s    Load segment chunks: 77.8%, time = 37.18s, I/O = 79.55MiB/s    Load segment chunks: 77.9%, time = 37.39s, I/O = 79.22MiB/s    Load segment chunks: 78.0%, time = 37.43s, I/O = 79.23MiB/s    Load segment chunks: 78.1%, time = 37.49s, I/O = 79.27MiB/s    Load segment chunks: 78.2%, time = 37.53s, I/O = 79.29MiB/s    Load segment chunks: 78.3%, time = 37.58s, I/O = 79.31MiB/s    Load segment chunks: 78.4%, time = 37.62s, I/O = 79.32MiB/s    Load segment chunks: 78.5%, time = 37.66s, I/O = 79.34MiB/s    Load segment chunks: 78.7%, time = 37.72s, I/O = 79.37MiB/s    Load segment chunks: 78.8%, time = 37.76s, I/O = 79.39MiB/s    Load segment chunks: 78.9%, time = 37.81s, I/O = 79.40MiB/s    Load segment chunks: 79.0%, time = 37.85s, I/O = 79.41MiB/s    Load segment chunks: 79.2%, time = 37.92s, I/O = 79.44MiB/s    Load segment chunks: 79.3%, time = 37.96s, I/O = 79.45MiB/s    Load segment chunks: 79.4%, time = 38.02s, I/O = 79.49MiB/s    Load segment chunks: 79.5%, time = 38.06s, I/O = 79.50MiB/s    Load segment chunks: 79.7%, time = 38.11s, I/O = 79.51MiB/s    Load segment chunks: 79.8%, time = 38.16s, I/O = 79.55MiB/s    Load segment chunks: 79.9%, time = 38.29s, I/O = 79.40MiB/s    Load segment chunks: 80.0%, time = 38.31s, I/O = 79.47MiB/s    Load segment chunks: 80.1%, time = 38.41s, I/O = 79.36MiB/s    Load segment chunks: 80.3%, time = 38.46s, I/O = 79.40MiB/s    Load segment chunks: 80.4%, time = 38.52s, I/O = 79.39MiB/s    Load segment chunks: 80.5%, time = 38.57s, I/O = 79.40MiB/s    Load segment chunks: 80.7%, time = 38.63s, I/O = 79.42MiB/s    Load segment chunks: 80.8%, time = 38.67s, I/O = 79.43MiB/s    Load segment chunks: 80.9%, time = 38.74s, I/O = 79.46MiB/s    Load segment chunks: 81.0%, time = 38.78s, I/O = 79.48MiB/s    Load segment chunks: 81.1%, time = 38.82s, I/O = 79.49MiB/s    Load segment chunks: 81.2%, time = 38.87s, I/O = 79.50MiB/s    Load segment chunks: 81.4%, time = 38.93s, I/O = 79.53MiB/s    Load segment chunks: 81.5%, time = 38.97s, I/O = 79.55MiB/s    Load segment chunks: 81.6%, time = 39.03s, I/O = 79.57MiB/s    Load segment chunks: 81.8%, time = 39.08s, I/O = 79.58MiB/s    Load segment chunks: 81.9%, time = 39.12s, I/O = 79.60MiB/s    Load segment chunks: 82.0%, time = 39.18s, I/O = 79.63MiB/s    Load segment chunks: 82.1%, time = 39.33s, I/O = 79.44MiB/s    Load segment chunks: 82.2%, time = 39.37s, I/O = 79.46MiB/s    Load segment chunks: 82.4%, time = 39.43s, I/O = 79.49MiB/s    Load segment chunks: 82.5%, time = 39.47s, I/O = 79.50MiB/s    Load segment chunks: 82.6%, time = 39.52s, I/O = 79.51MiB/s    Load segment chunks: 82.8%, time = 39.57s, I/O = 79.55MiB/s    Load segment chunks: 82.9%, time = 39.61s, I/O = 79.57MiB/s    Load segment chunks: 83.0%, time = 39.67s, I/O = 79.56MiB/s    Load segment chunks: 83.1%, time = 39.71s, I/O = 79.58MiB/s    Load segment chunks: 83.2%, time = 39.77s, I/O = 79.61MiB/s    Load segment chunks: 83.3%, time = 39.81s, I/O = 79.63MiB/s    Load segment chunks: 83.4%, time = 39.85s, I/O = 79.64MiB/s    Load segment chunks: 83.6%, time = 39.91s, I/O = 79.67MiB/s    Load segment chunks: 83.7%, time = 39.96s, I/O = 79.68MiB/s    Load segment chunks: 83.9%, time = 40.02s, I/O = 79.72MiB/s    Load segment chunks: 84.0%, time = 40.06s, I/O = 79.73MiB/s    Load segment chunks: 84.1%, time = 40.11s, I/O = 79.74MiB/s    Load segment chunks: 84.2%, time = 40.29s, I/O = 79.53MiB/s    Load segment chunks: 84.3%, time = 40.33s, I/O = 79.54MiB/s    Load segment chunks: 84.4%, time = 40.38s, I/O = 79.54MiB/s    Load segment chunks: 84.6%, time = 40.44s, I/O = 79.57MiB/s    Load segment chunks: 84.7%, time = 40.49s, I/O = 79.57MiB/s    Load segment chunks: 84.9%, time = 40.55s, I/O = 79.60MiB/s    Load segment chunks: 85.0%, time = 40.60s, I/O = 79.61MiB/s    Load segment chunks: 85.1%, time = 40.64s, I/O = 79.63MiB/s    Load segment chunks: 85.2%, time = 40.68s, I/O = 79.64MiB/s    Load segment chunks: 85.3%, time = 40.72s, I/O = 79.66MiB/s    Load segment chunks: 85.4%, time = 40.76s, I/O = 79.69MiB/s    Load segment chunks: 85.5%, time = 40.83s, I/O = 79.69MiB/s    Load segment chunks: 85.6%, time = 40.88s, I/O = 79.71MiB/s    Load segment chunks: 85.8%, time = 40.92s, I/O = 79.72MiB/s    Load segment chunks: 85.9%, time = 40.96s, I/O = 79.73MiB/s    Load segment chunks: 86.0%, time = 41.00s, I/O = 79.75MiB/s    Load segment chunks: 86.1%, time = 41.05s, I/O = 79.76MiB/s    Load segment chunks: 86.2%, time = 41.25s, I/O = 79.52MiB/s    Load segment chunks: 86.4%, time = 41.29s, I/O = 79.58MiB/s    Load segment chunks: 86.4%, time = 41.38s, I/O = 79.47MiB/s    Load segment chunks: 86.5%, time = 41.42s, I/O = 79.48MiB/s    Load segment chunks: 86.6%, time = 41.46s, I/O = 79.51MiB/s    Load segment chunks: 86.8%, time = 41.53s, I/O = 79.51MiB/s    Load segment chunks: 86.9%, time = 41.57s, I/O = 79.53MiB/s    Load segment chunks: 87.0%, time = 41.61s, I/O = 79.54MiB/s    Load segment chunks: 87.1%, time = 41.66s, I/O = 79.55MiB/s    Load segment chunks: 87.2%, time = 41.70s, I/O = 79.57MiB/s    Load segment chunks: 87.4%, time = 41.77s, I/O = 79.59MiB/s    Load segment chunks: 87.5%, time = 41.81s, I/O = 79.59MiB/s    Load segment chunks: 87.6%, time = 41.86s, I/O = 79.60MiB/s    Load segment chunks: 87.7%, time = 41.92s, I/O = 79.63MiB/s    Load segment chunks: 87.9%, time = 41.97s, I/O = 79.63MiB/s    Load segment chunks: 88.0%, time = 42.02s, I/O = 79.63MiB/s    Load segment chunks: 88.1%, time = 42.06s, I/O = 79.65MiB/s    Load segment chunks: 88.2%, time = 42.12s, I/O = 79.67MiB/s    Load segment chunks: 88.3%, time = 42.17s, I/O = 79.68MiB/s    Load segment chunks: 88.4%, time = 42.43s, I/O = 79.28MiB/s    Load segment chunks: 88.6%, time = 42.46s, I/O = 79.36MiB/s    Load segment chunks: 88.7%, time = 42.51s, I/O = 79.37MiB/s    Load segment chunks: 88.8%, time = 42.56s, I/O = 79.38MiB/s    Load segment chunks: 88.9%, time = 42.60s, I/O = 79.39MiB/s    Load segment chunks: 89.1%, time = 42.66s, I/O = 79.42MiB/s    Load segment chunks: 89.2%, time = 42.70s, I/O = 79.44MiB/s    Load segment chunks: 89.3%, time = 42.76s, I/O = 79.43MiB/s    Load segment chunks: 89.4%, time = 42.80s, I/O = 79.44MiB/s    Load segment chunks: 89.5%, time = 42.86s, I/O = 79.47MiB/s    Load segment chunks: 89.6%, time = 42.90s, I/O = 79.49MiB/s    Load segment chunks: 89.7%, time = 42.94s, I/O = 79.50MiB/s    Load segment chunks: 89.9%, time = 43.00s, I/O = 79.53MiB/s    Load segment chunks: 90.0%, time = 43.05s, I/O = 79.54MiB/s    Load segment chunks: 90.1%, time = 43.09s, I/O = 79.56MiB/s    Load segment chunks: 90.2%, time = 43.13s, I/O = 79.57MiB/s    Load segment chunks: 90.4%, time = 43.19s, I/O = 79.60MiB/s    Load segment chunks: 90.5%, time = 43.32s, I/O = 79.45MiB/s    Load segment chunks: 90.6%, time = 43.36s, I/O = 79.47MiB/s    Load segment chunks: 90.7%, time = 43.41s, I/O = 79.48MiB/s    Load segment chunks: 90.9%, time = 43.47s, I/O = 79.51MiB/s    Load segment chunks: 91.0%, time = 43.51s, I/O = 79.52MiB/s    Load segment chunks: 91.1%, time = 43.55s, I/O = 79.53MiB/s    Load segment chunks: 91.2%, time = 43.61s, I/O = 79.57MiB/s    Load segment chunks: 91.3%, time = 43.65s, I/O = 79.58MiB/s    Load segment chunks: 91.4%, time = 43.70s, I/O = 79.59MiB/s    Load segment chunks: 91.5%, time = 43.74s, I/O = 79.60MiB/s    Load segment chunks: 91.7%, time = 43.79s, I/O = 79.65MiB/s    Load segment chunks: 91.8%, time = 43.85s, I/O = 79.64MiB/s    Load segment chunks: 91.9%, time = 43.89s, I/O = 79.65MiB/s    Load segment chunks: 92.0%, time = 43.93s, I/O = 79.67MiB/s    Load segment chunks: 92.2%, time = 43.99s, I/O = 79.70MiB/s    Load segment chunks: 92.3%, time = 44.03s, I/O = 79.71MiB/s    Load segment chunks: 92.5%, time = 44.07s, I/O = 79.87MiB/s    Load segment chunks: 92.5%, time = 44.09s, I/O = 79.84MiB/s    Load segment chunks: 92.6%, time = 44.39s, I/O = 79.39MiB/s    Load segment chunks: 92.7%, time = 44.46s, I/O = 79.35MiB/s    Load segment chunks: 92.8%, time = 44.50s, I/O = 79.36MiB/s    Load segment chunks: 93.0%, time = 44.54s, I/O = 79.39MiB/s    Load segment chunks: 93.1%, time = 44.63s, I/O = 79.37MiB/s    Load segment chunks: 93.2%, time = 44.67s, I/O = 79.38MiB/s    Load segment chunks: 93.3%, time = 44.72s, I/O = 79.39MiB/s    Load segment chunks: 93.4%, time = 44.76s, I/O = 79.39MiB/s    Load segment chunks: 93.5%, time = 44.81s, I/O = 79.40MiB/s    Load segment chunks: 93.7%, time = 44.87s, I/O = 79.43MiB/s    Load segment chunks: 93.8%, time = 44.92s, I/O = 79.43MiB/s    Load segment chunks: 93.9%, time = 44.97s, I/O = 79.44MiB/s    Load segment chunks: 94.1%, time = 45.18s, I/O = 79.25MiB/s    Load segment chunks: 94.2%, time = 45.27s, I/O = 79.13MiB/s    Load segment chunks: 94.3%, time = 45.32s, I/O = 79.13MiB/s    Load segment chunks: 94.4%, time = 45.36s, I/O = 79.14MiB/s    Load segment chunks: 94.5%, time = 45.42s, I/O = 79.17MiB/s    Load segment chunks: 94.6%, time = 45.46s, I/O = 79.19MiB/s    Load segment chunks: 94.7%, time = 45.51s, I/O = 79.20MiB/s    Load segment chunks: 94.8%, time = 45.55s, I/O = 79.21MiB/s    Load segment chunks: 95.0%, time = 45.59s, I/O = 79.23MiB/s    Load segment chunks: 95.1%, time = 45.65s, I/O = 79.26MiB/s    Load segment chunks: 95.2%, time = 45.69s, I/O = 79.27MiB/s    Load segment chunks: 95.3%, time = 45.73s, I/O = 79.29MiB/s    Load segment chunks: 95.4%, time = 45.78s, I/O = 79.29MiB/s    Load segment chunks: 95.6%, time = 45.84s, I/O = 79.32MiB/s    Load segment chunks: 95.7%, time = 45.88s, I/O = 79.33MiB/s    Load segment chunks: 95.8%, time = 45.93s, I/O = 79.34MiB/s    Load segment chunks: 96.0%, time = 45.99s, I/O = 79.37MiB/s    Load segment chunks: 96.1%, time = 46.03s, I/O = 79.38MiB/s    Load segment chunks: 96.2%, time = 46.07s, I/O = 79.39MiB/s    Load segment chunks: 96.4%, time = 46.23s, I/O = 79.29MiB/s    Load segment chunks: 96.4%, time = 46.33s, I/O = 79.18MiB/s    Load segment chunks: 96.5%, time = 46.37s, I/O = 79.19MiB/s    Load segment chunks: 96.7%, time = 46.43s, I/O = 79.22MiB/s    Load segment chunks: 96.8%, time = 46.49s, I/O = 79.21MiB/s    Load segment chunks: 96.9%, time = 46.53s, I/O = 79.22MiB/s    Load segment chunks: 97.0%, time = 46.57s, I/O = 79.23MiB/s    Load segment chunks: 97.2%, time = 46.63s, I/O = 79.26MiB/s    Load segment chunks: 97.3%, time = 46.67s, I/O = 79.28MiB/s    Load segment chunks: 97.4%, time = 46.72s, I/O = 79.29MiB/s    Load segment chunks: 97.5%, time = 46.76s, I/O = 79.30MiB/s    Load segment chunks: 97.6%, time = 46.82s, I/O = 79.33MiB/s    Load segment chunks: 97.7%, time = 46.86s, I/O = 79.34MiB/s    Load segment chunks: 97.8%, time = 46.90s, I/O = 79.35MiB/s    Load segment chunks: 97.9%, time = 46.95s, I/O = 79.36MiB/s    Load segment chunks: 98.1%, time = 47.01s, I/O = 79.38MiB/s    Load segment chunks: 98.2%, time = 47.06s, I/O = 79.39MiB/s    Load segment chunks: 98.3%, time = 47.10s, I/O = 79.40MiB/s    Load segment chunks: 98.4%, time = 47.31s, I/O = 79.14MiB/s    Load segment chunks: 98.6%, time = 47.48s, I/O = 78.97MiB/s    Load segment chunks: 98.7%, time = 47.53s, I/O = 78.98MiB/s    Load segment chunks: 98.8%, time = 47.58s, I/O = 78.98MiB/s    Load segment chunks: 98.9%, time = 47.63s, I/O = 78.99MiB/s    Load segment chunks: 99.0%, time = 47.67s, I/O = 79.00MiB/s    Load segment chunks: 99.2%, time = 47.73s, I/O = 79.02MiB/s    Load segment chunks: 99.3%, time = 47.77s, I/O = 79.04MiB/s    Load segment chunks: 99.4%, time = 47.84s, I/O = 79.02MiB/s    Load segment chunks: 99.5%, time = 47.89s, I/O = 79.02MiB/s    Load segment chunks: 99.6%, time = 47.94s, I/O = 79.05MiB/s    Load segment chunks: 99.7%, time = 47.99s, I/O = 79.06MiB/s    Load segment chunks: 99.8%, time = 48.04s, I/O = 79.06MiB/s    Load segment chunks: 99.9%, time = 48.08s, I/O = 79.07MiB/s    Load segment chunks: 100.0%, time = 48.10s, I/O = 79.09MiB/s
    Selfdecode segment:     Selfdecode segment: time = 0.00s, I/O = 0.23MiB/s
    Write segment to disk: 30.11s, I/O = 117.96MiB/s
    Decode the nearby phrases for next segment: 0.00s
  Decode segment 3/3 [7449083904..8589934592):
    Load segment chunks:     Load segment chunks: 0.5%, time = 0.08s, I/O = 74.13MiB/s    Load segment chunks: 0.8%, time = 0.13s, I/O = 79.88MiB/s    Load segment chunks: 1.1%, time = 0.17s, I/O = 83.07MiB/s    Load segment chunks: 1.5%, time = 0.21s, I/O = 85.89MiB/s    Load segment chunks: 2.0%, time = 0.27s, I/O = 90.51MiB/s    Load segment chunks: 2.3%, time = 0.31s, I/O = 90.73MiB/s    Load segment chunks: 2.6%, time = 0.35s, I/O = 91.14MiB/s    Load segment chunks: 3.1%, time = 0.41s, I/O = 93.56MiB/s    Load segment chunks: 3.4%, time = 0.45s, I/O = 93.43MiB/s    Load segment chunks: 3.7%, time = 0.49s, I/O = 93.47MiB/s    Load segment chunks: 4.1%, time = 0.54s, I/O = 92.39MiB/s    Load segment chunks: 4.6%, time = 0.64s, I/O = 87.50MiB/s    Load segment chunks: 4.9%, time = 0.76s, I/O = 78.67MiB/s    Load segment chunks: 5.2%, time = 0.81s, I/O = 79.23MiB/s    Load segment chunks: 5.5%, time = 0.85s, I/O = 79.66MiB/s    Load segment chunks: 5.9%, time = 0.90s, I/O = 80.22MiB/s    Load segment chunks: 6.4%, time = 0.96s, I/O = 81.46MiB/s    Load segment chunks: 6.7%, time = 1.00s, I/O = 81.72MiB/s    Load segment chunks: 7.0%, time = 1.05s, I/O = 81.96MiB/s    Load segment chunks: 7.3%, time = 1.09s, I/O = 82.21MiB/s    Load segment chunks: 7.8%, time = 1.15s, I/O = 83.60MiB/s    Load segment chunks: 8.1%, time = 1.20s, I/O = 82.99MiB/s    Load segment chunks: 8.5%, time = 1.25s, I/O = 83.25MiB/s    Load segment chunks: 8.8%, time = 1.29s, I/O = 83.56MiB/s    Load segment chunks: 9.3%, time = 1.35s, I/O = 84.44MiB/s    Load segment chunks: 9.6%, time = 1.39s, I/O = 84.71MiB/s    Load segment chunks: 9.9%, time = 1.44s, I/O = 84.94MiB/s    Load segment chunks: 10.3%, time = 1.48s, I/O = 85.10MiB/s    Load segment chunks: 10.8%, time = 1.54s, I/O = 85.90MiB/s    Load segment chunks: 11.2%, time = 1.65s, I/O = 83.65MiB/s    Load segment chunks: 11.4%, time = 1.67s, I/O = 83.95MiB/s    Load segment chunks: 11.7%, time = 1.77s, I/O = 81.32MiB/s    Load segment chunks: 12.2%, time = 1.85s, I/O = 81.29MiB/s    Load segment chunks: 12.5%, time = 1.89s, I/O = 81.55MiB/s    Load segment chunks: 12.9%, time = 1.93s, I/O = 81.75MiB/s    Load segment chunks: 13.2%, time = 1.98s, I/O = 82.02MiB/s    Load segment chunks: 13.5%, time = 2.01s, I/O = 82.46MiB/s    Load segment chunks: 14.0%, time = 2.08s, I/O = 82.89MiB/s    Load segment chunks: 14.3%, time = 2.12s, I/O = 83.15MiB/s    Load segment chunks: 14.7%, time = 2.16s, I/O = 83.27MiB/s    Load segment chunks: 15.0%, time = 2.21s, I/O = 83.38MiB/s    Load segment chunks: 15.3%, time = 2.25s, I/O = 83.57MiB/s    Load segment chunks: 15.8%, time = 2.39s, I/O = 81.16MiB/s    Load segment chunks: 16.1%, time = 2.43s, I/O = 81.34MiB/s    Load segment chunks: 16.5%, time = 2.48s, I/O = 81.55MiB/s    Load segment chunks: 16.8%, time = 2.52s, I/O = 81.77MiB/s    Load segment chunks: 17.1%, time = 2.56s, I/O = 81.92MiB/s    Load segment chunks: 17.6%, time = 2.62s, I/O = 82.46MiB/s    Load segment chunks: 17.9%, time = 2.66s, I/O = 82.57MiB/s    Load segment chunks: 18.2%, time = 2.71s, I/O = 82.77MiB/s    Load segment chunks: 18.6%, time = 2.75s, I/O = 82.95MiB/s    Load segment chunks: 18.9%, time = 2.79s, I/O = 83.08MiB/s    Load segment chunks: 19.4%, time = 2.85s, I/O = 83.60MiB/s    Load segment chunks: 19.7%, time = 2.90s, I/O = 83.57MiB/s    Load segment chunks: 20.0%, time = 2.94s, I/O = 83.71MiB/s    Load segment chunks: 20.4%, time = 3.10s, I/O = 80.72MiB/s    Load segment chunks: 20.9%, time = 3.15s, I/O = 81.17MiB/s    Load segment chunks: 21.2%, time = 3.20s, I/O = 81.34MiB/s    Load segment chunks: 21.5%, time = 3.23s, I/O = 81.64MiB/s    Load segment chunks: 22.0%, time = 3.31s, I/O = 81.55MiB/s    Load segment chunks: 22.3%, time = 3.35s, I/O = 81.72MiB/s    Load segment chunks: 22.6%, time = 3.39s, I/O = 81.95MiB/s    Load segment chunks: 23.0%, time = 3.45s, I/O = 81.70MiB/s    Load segment chunks: 23.3%, time = 3.50s, I/O = 81.73MiB/s    Load segment chunks: 23.8%, time = 3.56s, I/O = 82.06MiB/s    Load segment chunks: 24.1%, time = 3.60s, I/O = 82.12MiB/s    Load segment chunks: 24.4%, time = 3.65s, I/O = 82.22MiB/s    Load segment chunks: 24.8%, time = 3.69s, I/O = 82.28MiB/s    Load segment chunks: 25.3%, time = 3.75s, I/O = 82.56MiB/s    Load segment chunks: 25.6%, time = 3.80s, I/O = 82.65MiB/s    Load segment chunks: 26.1%, time = 4.01s, I/O = 79.86MiB/s    Load segment chunks: 26.2%, time = 4.02s, I/O = 80.02MiB/s    Load segment chunks: 26.7%, time = 4.14s, I/O = 79.29MiB/s    Load segment chunks: 27.0%, time = 4.19s, I/O = 79.24MiB/s    Load segment chunks: 27.4%, time = 4.23s, I/O = 79.38MiB/s    Load segment chunks: 27.7%, time = 4.28s, I/O = 79.52MiB/s    Load segment chunks: 28.0%, time = 4.32s, I/O = 79.63MiB/s    Load segment chunks: 28.5%, time = 4.38s, I/O = 79.96MiB/s    Load segment chunks: 28.8%, time = 4.42s, I/O = 80.04MiB/s    Load segment chunks: 29.2%, time = 4.47s, I/O = 80.18MiB/s    Load segment chunks: 29.7%, time = 4.52s, I/O = 80.48MiB/s    Load segment chunks: 30.0%, time = 4.56s, I/O = 80.67MiB/s    Load segment chunks: 30.3%, time = 4.62s, I/O = 80.50MiB/s    Load segment chunks: 30.6%, time = 4.67s, I/O = 80.59MiB/s    Load segment chunks: 31.1%, time = 4.86s, I/O = 78.67MiB/s    Load segment chunks: 31.4%, time = 4.90s, I/O = 78.78MiB/s    Load segment chunks: 31.8%, time = 4.94s, I/O = 78.96MiB/s    Load segment chunks: 32.3%, time = 5.00s, I/O = 79.18MiB/s    Load segment chunks: 32.6%, time = 5.05s, I/O = 79.28MiB/s    Load segment chunks: 32.9%, time = 5.09s, I/O = 79.39MiB/s    Load segment chunks: 33.2%, time = 5.13s, I/O = 79.48MiB/s    Load segment chunks: 33.7%, time = 5.19s, I/O = 79.77MiB/s    Load segment chunks: 34.0%, time = 5.24s, I/O = 79.71MiB/s    Load segment chunks: 34.4%, time = 5.29s, I/O = 79.82MiB/s    Load segment chunks: 34.7%, time = 5.33s, I/O = 79.98MiB/s    Load segment chunks: 35.2%, time = 5.39s, I/O = 80.18MiB/s    Load segment chunks: 35.5%, time = 5.43s, I/O = 80.29MiB/s    Load segment chunks: 35.8%, time = 5.47s, I/O = 80.40MiB/s    Load segment chunks: 36.2%, time = 5.52s, I/O = 80.49MiB/s    Load segment chunks: 36.7%, time = 5.57s, I/O = 80.77MiB/s    Load segment chunks: 37.0%, time = 5.61s, I/O = 80.88MiB/s    Load segment chunks: 37.3%, time = 5.70s, I/O = 80.35MiB/s    Load segment chunks: 37.6%, time = 5.82s, I/O = 79.34MiB/s    Load segment chunks: 38.1%, time = 5.88s, I/O = 79.62MiB/s    Load segment chunks: 38.4%, time = 5.92s, I/O = 79.71MiB/s    Load segment chunks: 38.8%, time = 5.96s, I/O = 79.82MiB/s    Load segment chunks: 39.1%, time = 6.01s, I/O = 79.91MiB/s    Load segment chunks: 39.6%, time = 6.06s, I/O = 80.16MiB/s    Load segment chunks: 39.9%, time = 6.11s, I/O = 80.26MiB/s    Load segment chunks: 40.2%, time = 6.15s, I/O = 80.35MiB/s    Load segment chunks: 40.7%, time = 6.21s, I/O = 80.46MiB/s    Load segment chunks: 41.1%, time = 6.25s, I/O = 80.59MiB/s    Load segment chunks: 41.4%, time = 6.31s, I/O = 80.45MiB/s    Load segment chunks: 41.9%, time = 6.37s, I/O = 80.64MiB/s    Load segment chunks: 42.2%, time = 6.42s, I/O = 80.67MiB/s    Load segment chunks: 42.5%, time = 6.47s, I/O = 80.72MiB/s    Load segment chunks: 42.8%, time = 6.51s, I/O = 80.75MiB/s    Load segment chunks: 43.3%, time = 6.57s, I/O = 80.93MiB/s    Load segment chunks: 43.8%, time = 6.70s, I/O = 80.36MiB/s    Load segment chunks: 44.2%, time = 6.79s, I/O = 79.84MiB/s    Load segment chunks: 44.5%, time = 6.84s, I/O = 79.80MiB/s    Load segment chunks: 44.8%, time = 6.89s, I/O = 79.86MiB/s    Load segment chunks: 45.3%, time = 6.94s, I/O = 80.07MiB/s    Load segment chunks: 45.6%, time = 6.99s, I/O = 80.14MiB/s    Load segment chunks: 45.9%, time = 7.03s, I/O = 80.21MiB/s    Load segment chunks: 46.3%, time = 7.08s, I/O = 80.26MiB/s    Load segment chunks: 46.8%, time = 7.13s, I/O = 80.46MiB/s    Load segment chunks: 47.1%, time = 7.18s, I/O = 80.55MiB/s    Load segment chunks: 47.4%, time = 7.22s, I/O = 80.61MiB/s    Load segment chunks: 47.7%, time = 7.26s, I/O = 80.68MiB/s    Load segment chunks: 48.2%, time = 7.31s, I/O = 80.93MiB/s    Load segment chunks: 48.5%, time = 7.37s, I/O = 80.88MiB/s    Load segment chunks: 48.9%, time = 7.41s, I/O = 80.95MiB/s    Load segment chunks: 49.2%, time = 7.46s, I/O = 81.00MiB/s    Load segment chunks: 49.7%, time = 7.51s, I/O = 81.19MiB/s    Load segment chunks: 50.0%, time = 7.55s, I/O = 81.27MiB/s    Load segment chunks: 50.5%, time = 7.77s, I/O = 79.84MiB/s    Load segment chunks: 51.0%, time = 7.81s, I/O = 80.17MiB/s    Load segment chunks: 51.2%, time = 7.90s, I/O = 79.54MiB/s    Load segment chunks: 51.5%, time = 7.93s, I/O = 79.66MiB/s    Load segment chunks: 51.8%, time = 7.99s, I/O = 79.59MiB/s    Load segment chunks: 52.3%, time = 8.05s, I/O = 79.76MiB/s    Load segment chunks: 52.6%, time = 8.09s, I/O = 79.84MiB/s    Load segment chunks: 52.9%, time = 8.13s, I/O = 79.91MiB/s    Load segment chunks: 53.3%, time = 8.18s, I/O = 80.00MiB/s    Load segment chunks: 53.6%, time = 8.22s, I/O = 80.07MiB/s    Load segment chunks: 54.1%, time = 8.27s, I/O = 80.26MiB/s    Load segment chunks: 54.4%, time = 8.32s, I/O = 80.33MiB/s    Load segment chunks: 54.7%, time = 8.35s, I/O = 80.44MiB/s    Load segment chunks: 55.1%, time = 8.48s, I/O = 79.70MiB/s    Load segment chunks: 55.6%, time = 8.54s, I/O = 79.82MiB/s    Load segment chunks: 55.9%, time = 8.59s, I/O = 79.89MiB/s    Load segment chunks: 56.2%, time = 8.63s, I/O = 79.94MiB/s    Load segment chunks: 56.7%, time = 8.69s, I/O = 80.11MiB/s    Load segment chunks: 57.0%, time = 8.73s, I/O = 80.16MiB/s    Load segment chunks: 57.3%, time = 8.78s, I/O = 80.22MiB/s    Load segment chunks: 57.7%, time = 8.82s, I/O = 80.27MiB/s    Load segment chunks: 58.2%, time = 8.88s, I/O = 80.44MiB/s    Load segment chunks: 58.5%, time = 8.92s, I/O = 80.50MiB/s    Load segment chunks: 58.8%, time = 8.98s, I/O = 80.42MiB/s    Load segment chunks: 59.1%, time = 9.02s, I/O = 80.49MiB/s    Load segment chunks: 59.6%, time = 9.08s, I/O = 80.64MiB/s    Load segment chunks: 60.0%, time = 9.12s, I/O = 80.70MiB/s    Load segment chunks: 60.3%, time = 9.16s, I/O = 80.75MiB/s    Load segment chunks: 60.6%, time = 9.21s, I/O = 80.79MiB/s    Load segment chunks: 61.1%, time = 9.27s, I/O = 80.95MiB/s    Load segment chunks: 61.6%, time = 9.38s, I/O = 80.63MiB/s    Load segment chunks: 61.7%, time = 9.39s, I/O = 80.68MiB/s    Load segment chunks: 62.1%, time = 9.51s, I/O = 80.16MiB/s    Load segment chunks: 62.6%, time = 9.56s, I/O = 80.34MiB/s    Load segment chunks: 62.9%, time = 9.62s, I/O = 80.26MiB/s    Load segment chunks: 63.2%, time = 9.66s, I/O = 80.31MiB/s    Load segment chunks: 63.5%, time = 9.71s, I/O = 80.34MiB/s    Load segment chunks: 64.0%, time = 9.77s, I/O = 80.41MiB/s    Load segment chunks: 64.4%, time = 9.82s, I/O = 80.45MiB/s    Load segment chunks: 64.7%, time = 9.87s, I/O = 80.47MiB/s    Load segment chunks: 65.2%, time = 9.93s, I/O = 80.58MiB/s    Load segment chunks: 65.5%, time = 9.97s, I/O = 80.61MiB/s    Load segment chunks: 66.0%, time = 10.04s, I/O = 80.65MiB/s    Load segment chunks: 66.3%, time = 10.09s, I/O = 80.70MiB/s    Load segment chunks: 66.6%, time = 10.13s, I/O = 80.73MiB/s    Load segment chunks: 67.1%, time = 10.19s, I/O = 80.87MiB/s    Load segment chunks: 67.4%, time = 10.23s, I/O = 80.91MiB/s    Load segment chunks: 67.8%, time = 10.28s, I/O = 80.95MiB/s    Load segment chunks: 68.4%, time = 10.41s, I/O = 80.71MiB/s    Load segment chunks: 68.6%, time = 10.50s, I/O = 80.22MiB/s    Load segment chunks: 68.9%, time = 10.54s, I/O = 80.26MiB/s    Load segment chunks: 69.2%, time = 10.58s, I/O = 80.30MiB/s    Load segment chunks: 69.7%, time = 10.64s, I/O = 80.48MiB/s    Load segment chunks: 70.1%, time = 10.70s, I/O = 80.40MiB/s    Load segment chunks: 70.4%, time = 10.74s, I/O = 80.46MiB/s    Load segment chunks: 70.7%, time = 10.78s, I/O = 80.50MiB/s    Load segment chunks: 71.0%, time = 10.82s, I/O = 80.56MiB/s    Load segment chunks: 71.4%, time = 10.87s, I/O = 80.60MiB/s    Load segment chunks: 71.7%, time = 10.91s, I/O = 80.66MiB/s    Load segment chunks: 72.2%, time = 10.97s, I/O = 80.78MiB/s    Load segment chunks: 72.5%, time = 11.01s, I/O = 80.84MiB/s    Load segment chunks: 72.8%, time = 11.05s, I/O = 80.89MiB/s    Load segment chunks: 73.1%, time = 11.10s, I/O = 80.91MiB/s    Load segment chunks: 73.6%, time = 11.15s, I/O = 81.07MiB/s    Load segment chunks: 74.0%, time = 11.20s, I/O = 81.04MiB/s    Load segment chunks: 74.3%, time = 11.25s, I/O = 81.08MiB/s    Load segment chunks: 74.6%, time = 11.29s, I/O = 81.13MiB/s    Load segment chunks: 74.9%, time = 11.33s, I/O = 81.18MiB/s    Load segment chunks: 75.4%, time = 11.40s, I/O = 81.22MiB/s    Load segment chunks: 75.8%, time = 11.61s, I/O = 80.09MiB/s    Load segment chunks: 76.1%, time = 11.62s, I/O = 80.36MiB/s    Load segment chunks: 76.4%, time = 11.71s, I/O = 80.12MiB/s    Load segment chunks: 76.7%, time = 11.75s, I/O = 80.14MiB/s    Load segment chunks: 77.2%, time = 11.82s, I/O = 80.24MiB/s    Load segment chunks: 77.5%, time = 11.86s, I/O = 80.29MiB/s    Load segment chunks: 77.9%, time = 11.91s, I/O = 80.24MiB/s    Load segment chunks: 78.4%, time = 12.04s, I/O = 79.91MiB/s    Load segment chunks: 78.7%, time = 12.08s, I/O = 79.96MiB/s    Load segment chunks: 79.0%, time = 12.13s, I/O = 80.00MiB/s    Load segment chunks: 79.3%, time = 12.17s, I/O = 80.04MiB/s    Load segment chunks: 79.7%, time = 12.21s, I/O = 80.08MiB/s    Load segment chunks: 80.2%, time = 12.27s, I/O = 80.20MiB/s    Load segment chunks: 80.5%, time = 12.31s, I/O = 80.24MiB/s    Load segment chunks: 80.8%, time = 12.36s, I/O = 80.28MiB/s    Load segment chunks: 81.1%, time = 12.40s, I/O = 80.32MiB/s    Load segment chunks: 81.6%, time = 12.46s, I/O = 80.41MiB/s    Load segment chunks: 81.9%, time = 12.51s, I/O = 80.44MiB/s    Load segment chunks: 82.3%, time = 12.55s, I/O = 80.49MiB/s    Load segment chunks: 82.6%, time = 12.59s, I/O = 80.52MiB/s    Load segment chunks: 83.1%, time = 12.65s, I/O = 80.64MiB/s    Load segment chunks: 83.4%, time = 12.69s, I/O = 80.67MiB/s    Load segment chunks: 83.7%, time = 12.74s, I/O = 80.70MiB/s    Load segment chunks: 84.2%, time = 12.80s, I/O = 80.78MiB/s    Load segment chunks: 84.7%, time = 12.86s, I/O = 80.87MiB/s    Load segment chunks: 85.4%, time = 13.02s, I/O = 80.52MiB/s    Load segment chunks: 85.4%, time = 13.03s, I/O = 80.41MiB/s    Load segment chunks: 85.7%, time = 13.14s, I/O = 80.08MiB/s    Load segment chunks: 86.2%, time = 13.20s, I/O = 80.16MiB/s    Load segment chunks: 86.5%, time = 13.25s, I/O = 80.18MiB/s    Load segment chunks: 86.8%, time = 13.29s, I/O = 80.19MiB/s    Load segment chunks: 87.3%, time = 13.35s, I/O = 80.27MiB/s    Load segment chunks: 87.6%, time = 13.40s, I/O = 80.28MiB/s    Load segment chunks: 88.0%, time = 13.45s, I/O = 80.30MiB/s    Load segment chunks: 88.5%, time = 13.51s, I/O = 80.38MiB/s    Load segment chunks: 88.8%, time = 13.56s, I/O = 80.39MiB/s    Load segment chunks: 89.1%, time = 13.61s, I/O = 80.40MiB/s    Load segment chunks: 89.6%, time = 13.68s, I/O = 80.43MiB/s    Load segment chunks: 89.9%, time = 13.72s, I/O = 80.46MiB/s    Load segment chunks: 90.4%, time = 13.78s, I/O = 80.56MiB/s    Load segment chunks: 90.7%, time = 13.82s, I/O = 80.60MiB/s    Load segment chunks: 91.1%, time = 13.87s, I/O = 80.62MiB/s    Load segment chunks: 91.6%, time = 14.01s, I/O = 80.22MiB/s    Load segment chunks: 92.0%, time = 14.07s, I/O = 80.28MiB/s    Load segment chunks: 92.2%, time = 14.16s, I/O = 79.92MiB/s    Load segment chunks: 92.5%, time = 14.21s, I/O = 79.95MiB/s    Load segment chunks: 93.0%, time = 14.26s, I/O = 80.07MiB/s    Load segment chunks: 93.4%, time = 14.32s, I/O = 80.03MiB/s    Load segment chunks: 93.7%, time = 14.39s, I/O = 79.94MiB/s    Load segment chunks: 94.0%, time = 14.43s, I/O = 79.97MiB/s    Load segment chunks: 94.3%, time = 14.47s, I/O = 80.02MiB/s    Load segment chunks: 94.7%, time = 14.51s, I/O = 80.07MiB/s    Load segment chunks: 95.0%, time = 14.56s, I/O = 80.10MiB/s    Load segment chunks: 95.5%, time = 14.62s, I/O = 80.19MiB/s    Load segment chunks: 95.8%, time = 14.66s, I/O = 80.23MiB/s    Load segment chunks: 96.1%, time = 14.70s, I/O = 80.27MiB/s    Load segment chunks: 96.4%, time = 14.74s, I/O = 80.30MiB/s    Load segment chunks: 96.8%, time = 14.79s, I/O = 80.33MiB/s    Load segment chunks: 97.1%, time = 14.83s, I/O = 80.40MiB/s    Load segment chunks: 97.4%, time = 14.89s, I/O = 80.35MiB/s    Load segment chunks: 97.9%, time = 15.06s, I/O = 79.81MiB/s    Load segment chunks: 98.2%, time = 15.11s, I/O = 79.83MiB/s    Load segment chunks: 98.6%, time = 15.15s, I/O = 79.85MiB/s    Load segment chunks: 98.9%, time = 15.20s, I/O = 79.86MiB/s    Load segment chunks: 99.4%, time = 15.26s, I/O = 79.94MiB/s    Load segment chunks: 99.7%, time = 15.31s, I/O = 79.96MiB/s    Load segment chunks: 100.0%, time = 15.35s, I/O = 79.99MiB/s
    Selfdecode segment:     Selfdecode segment: time = 0.00s, I/O = 0.10MiB/s
    Write segment to disk: 9.64s, I/O = 112.83MiB/s
    Decode the nearby phrases for next segment: 0.00s


Computation finished. Summary:
  I/O volume = 22695682990 (2.64B/B)
  number of decoded phrases: 195913633
  average phrase length = 43.85
  length of decoded text: 8589934592 (8192.00MiB)
  elapsed time: 216.72s (0.0265s/MiB)
  speed: 37.80MiB/s
Decompression t(s)    : 216.768100977
