/home/work/dvalenzu/data/kernel.64GiB: 9,357.2 MiB / 64.0 GiB = 0.143, 1.9 MiB/s, 9:31:14
/home/work/dvalenzu/data/kernel.64GiB.decompressed.lzma: 9,357.2 MiB / 64.0 GiB = 0.143, 68 MiB/s, 16:08
Compression ratio : 0.142778798574
Final Wtime(s)    : 34274.5626731
Decompression t(s)    : 969.232720852
